v 20220529 2
T 100 5200 8 10 0 0 0 0 1
Copyright Mark Salyzyn
T 2200 4300 9 10 1 0 0 6 1
ATmega8
T 100 5000 8 10 0 0 0 0 1
description=AVR 8-bit µC
T 100 4800 8 10 0 0 0 0 1
footprint=TQFP32_7
T 2300 4600 8 10 1 1 0 6 1
refdes=U?
T 1200 5700 8 10 0 0 0 6 1
numslots=2
P 2600 2100 2300 2100 1 0 0
{
T 2400 2150 5 8 1 1 0 0 1
pinnumber=29
T 2400 2250 5 8 0 1 0 2 1
pinseq=29
T 2250 2100 9 8 1 1 0 6 1
pinlabel=(RESET) PC6
T 2250 2100 5 8 0 1 0 8 1
pintype=io
}
P 0 4300 300 4300 1 0 0
{
T 200 4350 5 8 1 1 0 6 1
pinnumber=30
T 200 4450 5 8 0 1 0 8 1
pinseq=30
T 350 4300 9 8 1 1 0 0 1
pinlabel=PD0 (RxD)
T 350 4300 5 8 0 1 0 2 1
pintype=io
}
P 0 4100 300 4100 1 0 0
{
T 200 4150 5 8 1 1 0 6 1
pinnumber=31
T 200 4250 5 8 0 1 0 8 1
pinseq=31
T 350 4100 9 8 1 1 0 0 1
pinlabel=PD1 (TxD)
T 350 4100 5 8 0 1 0 2 1
pintype=io
}
P 0 3900 300 3900 1 0 0
{
T 200 3950 5 8 1 1 0 6 1
pinnumber=32
T 200 4050 5 8 0 1 0 8 1
pinseq=32
T 350 3900 9 8 1 1 0 0 1
pinlabel=PD2 (INT0)
T 350 3900 5 8 0 1 0 2 1
pintype=io
}
P 0 3700 300 3700 1 0 0
{
T 200 3750 5 8 1 1 0 6 1
pinnumber=1
T 200 3850 5 8 0 1 0 8 1
pinseq=1
T 350 3700 9 8 1 1 0 0 1
pinlabel=PD3 (INT1)
T 350 3700 5 8 0 1 0 2 1
pintype=io
}
P 0 3500 300 3500 1 0 0
{
T 200 3550 5 8 1 1 0 6 1
pinnumber=2
T 200 3650 5 8 0 1 0 8 1
pinseq=2
T 350 3500 9 8 1 1 0 0 1
pinlabel=PD4 (XCK/T0)
T 350 3500 5 8 0 1 0 2 1
pintype=io
}
T 2200 -150 5 10 0 1 0 6 1
net=Vcc:4,6
T 1400 -150 5 10 0 1 0 6 1
net=GND:3,5,21
P 0 400 300 400 1 0 0
{
T 200 450 5 8 1 1 0 6 1
pinnumber=7
T 200 550 5 8 0 1 0 8 1
pinseq=7
T 350 400 9 8 1 1 0 0 1
pinlabel=PB6 (XTAL1/OSC1)
T 350 400 5 8 0 1 0 2 1
pintype=io
}
P 0 200 300 200 1 0 0
{
T 200 250 5 8 1 1 0 6 1
pinnumber=8
T 200 350 5 8 0 1 0 8 1
pinseq=8
T 350 200 9 8 1 1 0 0 1
pinlabel=PB7 (XTAL2/TOSC2)
T 350 200 5 8 0 1 0 2 1
pintype=io
}
P 0 3300 300 3300 1 0 0
{
T 200 3350 5 8 1 1 0 6 1
pinnumber=9
T 200 3450 5 8 0 1 0 8 1
pinseq=9
T 350 3300 9 8 1 1 0 0 1
pinlabel=PD5 (T1)
T 350 3300 5 8 0 1 0 2 1
pintype=io
}
P 0 3100 300 3100 1 0 0
{
T 200 3150 5 8 1 1 0 6 1
pinnumber=10
T 200 3250 5 8 0 1 0 8 1
pinseq=10
T 350 3100 9 8 1 1 0 0 1
pinlabel=PD6 (AIN0)
T 350 3100 5 8 0 1 0 2 1
pintype=io
}
P 0 2900 300 2900 1 0 0
{
T 200 2950 5 8 1 1 0 6 1
pinnumber=11
T 200 3050 5 8 0 1 0 8 1
pinseq=11
T 350 2900 9 8 1 1 0 0 1
pinlabel=PD7 (AIN1)
T 350 2900 5 8 0 1 0 2 1
pintype=io
}
P 0 1600 300 1600 1 0 0
{
T 200 1650 5 8 1 1 0 6 1
pinnumber=12
T 200 1750 5 8 0 1 0 8 1
pinseq=12
T 350 1600 9 8 1 1 0 0 1
pinlabel=PB0 (ICP1)
T 350 1600 5 8 0 1 0 2 1
pintype=io
}
P 300 1400 0 1400 1 0 1
{
T 200 1450 5 8 1 1 0 6 1
pinnumber=13
T 200 1550 5 8 0 1 0 8 1
pinseq=13
T 350 1400 9 8 1 1 0 0 1
pinlabel=PB1 (OC1A)
T 350 1400 5 8 0 1 0 2 1
pintype=io
}
P 300 1200 0 1200 1 0 1
{
T 200 1250 5 8 1 1 0 6 1
pinnumber=14
T 200 1350 5 8 0 1 0 8 1
pinseq=14
T 350 1200 9 8 1 1 0 0 1
pinlabel=PB2 (SS/OC1B)
T 350 1200 5 8 0 1 0 2 1
pintype=io
}
P 300 1000 0 1000 1 0 1
{
T 200 1050 5 8 1 1 0 6 1
pinnumber=15
T 200 1150 5 8 0 1 0 8 1
pinseq=15
T 350 1000 9 8 1 1 0 0 1
pinlabel=PB3 (MOSI/OC2)
T 350 1000 5 8 0 1 0 2 1
pintype=io
}
P 300 800 0 800 1 0 1
{
T 200 850 5 8 1 1 0 6 1
pinnumber=16
T 200 950 5 8 0 1 0 8 1
pinseq=16
T 350 800 9 8 1 1 0 0 1
pinlabel=PB4 (MISO)
T 350 800 5 8 0 1 0 2 1
pintype=io
}
P 300 600 0 600 1 0 1
{
T 200 650 5 8 1 1 0 6 1
pinnumber=17
T 200 750 5 8 0 1 0 8 1
pinseq=17
T 350 600 9 8 1 1 0 0 1
pinlabel=PB5 (SCK)
T 350 600 5 8 0 1 0 2 1
pintype=io
}
P 2300 1000 2600 1000 1 0 1
{
T 2400 1050 5 8 1 1 0 0 1
pinnumber=18
T 2400 1150 5 8 0 1 0 2 1
pinseq=18
T 2250 1000 9 8 1 1 0 6 1
pinlabel=AVCC
T 2250 1000 5 8 0 1 0 8 1
pintype=in
}
P 2300 1300 2600 1300 1 0 1
{
T 2400 1350 5 8 1 1 0 0 1
pinnumber=20
T 2400 1450 5 8 0 1 0 2 1
pinseq=20
T 2250 1300 9 8 1 1 0 6 1
pinlabel=AREF
T 2250 1300 5 8 0 1 0 8 1
pintype=in
}
P 2300 3300 2600 3300 1 0 1
{
T 2400 3350 5 8 1 1 0 0 1
pinnumber=23
T 2400 3450 5 8 0 1 0 2 1
pinseq=23
T 2250 3300 9 8 1 1 0 6 1
pinlabel=(ADC0) PC0
T 2250 3300 5 8 0 1 0 8 1
pintype=io
}
P 2300 3100 2600 3100 1 0 1
{
T 2400 3150 5 8 1 1 0 0 1
pinnumber=24
T 2400 3250 5 8 0 1 0 2 1
pinseq=24
T 2250 3100 9 8 1 1 0 6 1
pinlabel=(ADC1) PC1
T 2250 3100 5 8 0 1 0 8 1
pintype=io
}
P 2300 2900 2600 2900 1 0 1
{
T 2400 2950 5 8 1 1 0 0 1
pinnumber=25
T 2400 3050 5 8 0 1 0 2 1
pinseq=25
T 2250 2900 9 8 1 1 0 6 1
pinlabel=(ADC2) PC2
T 2250 2900 5 8 0 1 0 8 1
pintype=io
}
P 2300 2700 2600 2700 1 0 1
{
T 2400 2750 5 8 1 1 0 0 1
pinnumber=26
T 2400 2850 5 8 0 1 0 2 1
pinseq=26
T 2250 2700 9 8 1 1 0 6 1
pinlabel=(ADC3) PC3
T 2250 2700 5 8 0 1 0 8 1
pintype=io
}
P 2300 2500 2600 2500 1 0 1
{
T 2400 2550 5 8 1 1 0 0 1
pinnumber=27
T 2400 2650 5 8 0 1 0 2 1
pinseq=27
T 2250 2500 9 8 1 1 0 6 1
pinlabel=(ADC4/SDA) PC4
T 2250 2500 5 8 0 1 0 8 1
pintype=io
}
P 2300 2300 2600 2300 1 0 1
{
T 2400 2350 5 8 1 1 0 0 1
pinnumber=28
T 2400 2450 5 8 0 1 0 2 1
pinseq=28
T 2250 2300 9 8 1 1 0 6 1
pinlabel=(ADC5/SCL) PC5
T 2250 2300 5 8 0 1 0 8 1
pintype=io
}
B 300 100 2000 4400 3 0 0 0 -1 -1 0 -1 -1 -1 -1 -1
T 100 5400 8 10 0 0 0 0 1
device=ATmega8
T 1300 5700 8 10 0 0 0 0 1
slot=2
P 2300 3900 2600 3900 1 0 1
{
T 2400 3950 5 8 1 1 0 0 1
pinnumber=19
T 2400 4050 5 8 0 1 0 2 1
pinseq=19
T 2250 3900 9 8 1 1 0 6 1
pinlabel=ADC6
T 2250 3900 5 8 0 1 0 8 1
pintype=io
}
P 2300 3700 2600 3700 1 0 1
{
T 2400 3750 5 8 1 1 0 0 1
pinnumber=22
T 2400 3850 5 8 0 1 0 2 1
pinseq=22
T 2250 3700 9 8 1 1 0 6 1
pinlabel=ADC7
T 2250 3700 5 8 0 1 0 8 1
pintype=io
}
