v 20220529 2
C 39400 40800 0 0 0 title-B.sym
{
T 49400 41800 19 25 1 1 0 0 1
title=atfuses pwm hv simulation
T 53500 41200 19 10 1 1 0 0 1
version=v01
T 53500 40900 19 10 1 1 0 0 1
author=SiB
T 49400 41500 19 10 1 1 0 0 1
git=https://codeberg.org/SiB64/atfuses.git
T 49400 41200 19 10 1 1 0 0 1
file=atfuses_spice.sch
}
C 40700 50100 1 0 0 resistor-2.sym
{
T 41100 50450 5 10 0 0 0 0 1
device=RESISTOR
T 41150 50200 5 10 1 1 0 4 1
refdes=R3
T 41150 50000 5 10 0 1 0 4 1
footprint=c0603
T 41150 50450 5 10 1 1 0 4 1
value=100Ω
T 40900 50800 5 10 0 0 0 0 1
symversion=0.1
}
C 52400 50100 1 0 0 io-1.sym
{
T 53300 50300 5 10 0 0 0 0 1
net=HVR:1
T 52600 50700 5 10 0 0 0 0 1
device=none
T 52900 50200 5 10 1 1 0 4 1
value=HVR
}
C 42600 50400 1 180 0 capacitor-1.sym
{
T 42400 49700 5 10 0 0 180 0 1
device=CAPACITOR
T 42400 49500 5 10 0 0 180 0 1
symversion=0.2
T 42400 49700 5 10 0 1 180 0 1
footprint=c0603
T 42050 50250 5 10 1 1 0 6 1
refdes=C1
T 42050 50050 5 10 0 1 0 6 1
value=100nF
}
N 41600 50200 41700 50200 4
{
T 41650 50275 5 5 1 1 0 4 1
netname=pwmr
}
C 40700 50300 1 180 0 io-1.sym
{
T 39800 50100 5 10 0 0 180 0 1
net=PWM:1
T 40500 49700 5 10 0 0 180 0 1
device=none
T 40200 50200 5 10 1 1 180 4 1
value=PWM
}
C 43500 50100 1 0 0 resistor-2.sym
{
T 43900 50450 5 10 0 0 0 0 1
device=RESISTOR
T 43950 50200 5 10 1 1 0 4 1
refdes=R4
T 43950 50000 5 10 0 1 0 4 1
footprint=c0603
T 43950 50450 5 10 1 1 0 4 1
value=10kΩ
T 43700 50800 5 10 0 0 0 0 1
symversion=0.1
}
C 45300 50100 1 0 0 resistor-2.sym
{
T 45700 50450 5 10 0 0 0 0 1
device=RESISTOR
T 45750 50200 5 10 1 1 0 4 1
refdes=R5
T 45750 50000 5 10 0 1 0 4 1
footprint=c0603
T 45750 50450 5 10 1 1 0 4 1
value=10kΩ
T 45500 50800 5 10 0 0 0 0 1
symversion=0.1
}
C 43700 48200 1 90 0 capacitor-1.sym
{
T 43000 48400 5 10 0 0 90 0 1
device=CAPACITOR
T 42800 48400 5 10 0 0 90 0 1
symversion=0.2
T 43000 48400 5 10 0 1 90 0 1
footprint=c0603
T 43550 48550 5 10 1 1 180 6 1
refdes=C5
T 43450 48550 5 10 0 1 180 0 1
value=100nF
}
N 43500 49100 43500 50200 4
{
T 43550 49925 5 5 1 1 0 4 1
netname=pwmd2
}
C 43400 47900 1 0 0 gnd-1.sym
C 45200 47900 1 0 0 gnd-1.sym
N 45300 49100 45300 50200 4
{
T 45350 49925 5 5 1 1 0 4 1
netname=pwmd3
}
C 45500 48200 1 90 0 capacitor-1.sym
{
T 44800 48400 5 10 0 0 90 0 1
device=CAPACITOR
T 44600 48400 5 10 0 0 90 0 1
symversion=0.2
T 44800 48400 5 10 0 1 90 0 1
footprint=c0603
T 45350 48550 5 10 1 1 180 6 1
refdes=C6
T 45250 48550 5 10 0 1 180 0 1
value=100nF
}
C 47000 47900 1 0 0 gnd-1.sym
N 47100 49100 47100 50200 4
C 42600 49900 1 180 0 capacitor-1.sym
{
T 42400 49200 5 10 0 0 180 0 1
device=CAPACITOR
T 42400 49000 5 10 0 0 180 0 1
symversion=0.2
T 42400 49200 5 10 0 1 180 0 1
footprint=c0603
T 42050 49750 5 10 1 1 0 6 1
refdes=C2
T 42050 49550 5 10 0 1 0 6 1
value=100nF
}
C 42600 49400 1 180 0 capacitor-1.sym
{
T 42400 48700 5 10 0 0 180 0 1
device=CAPACITOR
T 42400 48500 5 10 0 0 180 0 1
symversion=0.2
T 42400 48700 5 10 0 1 180 0 1
footprint=c0603
T 42050 49250 5 10 1 1 0 6 1
refdes=C3
T 42050 49050 5 10 0 1 0 6 1
value=100nF
}
N 41700 49200 41600 49200 4
N 41600 49200 41600 50200 4
N 42600 49700 44400 49700 4
{
T 42650 49775 5 5 1 1 0 4 1
netname=pwmc2
}
N 44400 49700 44400 50200 4
N 42600 49200 46200 49200 4
{
T 42650 49275 5 5 1 1 0 4 1
netname=pwmc3
}
N 46200 49200 46200 50200 4
C 42700 50400 1 90 0 resistor-2.sym
{
T 42350 50800 5 10 0 0 90 0 1
device=RESISTOR
T 42600 50850 5 10 1 1 90 4 1
refdes=R2
T 42800 50850 5 10 0 1 90 4 1
footprint=c0603
T 42350 50850 5 10 1 1 90 4 1
value=10kΩ
T 42000 50600 5 10 0 0 90 0 1
symversion=0.1
}
N 42600 50200 42600 50400 4
{
T 42650 50125 5 5 1 1 0 4 1
netname=pwmc1
}
C 42400 51300 1 0 0 vcc-1.sym
C 46900 49100 1 270 0 capacitor-4.sym
{
T 48000 48900 5 10 0 0 270 0 1
device=POLARIZED_CAPACITOR
T 47000 48900 5 10 1 1 90 4 1
refdes=C4
T 47600 48900 5 10 0 0 270 0 1
symversion=0.2
T 47600 48700 5 10 0 1 90 4 1
footprint=p1206
T 47400 48700 5 10 1 1 90 4 1
value=1uF
}
C 48000 49200 1 90 0 resistor-2.sym
{
T 47650 49600 5 10 0 0 90 0 1
device=RESISTOR
T 47900 49650 5 10 1 1 90 4 1
refdes=R8
T 48100 49650 5 10 0 1 90 4 1
footprint=c0603
T 47650 49650 5 10 1 1 90 4 1
value=1MegΩ
T 47300 49400 5 10 0 0 90 0 1
symversion=0.1
}
C 48000 48200 1 90 0 resistor-2.sym
{
T 47650 48600 5 10 0 0 90 0 1
device=RESISTOR
T 47900 48650 5 10 1 1 90 4 1
refdes=R11
T 48100 48650 5 10 0 1 90 4 1
footprint=c0603
T 47650 48650 5 10 1 1 90 4 1
value=121kΩ
T 47300 48400 5 10 0 0 90 0 1
symversion=0.1
}
N 47100 50200 50000 50200 4
{
T 47150 50275 5 5 1 1 0 4 1
netname=hv
}
C 47800 47900 1 0 0 gnd-1.sym
N 47900 49100 47900 49200 4
N 47900 50200 47900 50100 4
C 50000 49700 1 270 1 pmos-ub.sym
{
T 51400 50300 5 10 0 0 270 6 1
device=SUBCKT PMOS_TRANSISTOR
T 50300 49500 5 10 1 1 180 6 1
refdes=X1
T 50300 49700 5 10 1 1 180 6 1
footprint=SOT23
T 50300 49900 5 10 1 1 180 6 1
value=BSS84
T 50200 50300 5 10 0 0 0 0 1
model-name=BSS84
}
C 51100 48200 1 0 0 npn-sot23.sym
{
T 52000 48700 5 10 0 0 0 0 1
device=NPN_TRANSISTOR
T 50900 49300 5 10 1 1 0 0 1
refdes=Q2
T 50900 49100 5 10 1 1 0 0 1
footprint=SOT23
T 50900 48900 5 10 1 1 0 0 1
value=BC846
T 50900 48700 5 10 0 1 0 0 1
model-name=BC846
}
C 49600 48200 1 0 0 npn-sot23.sym
{
T 50500 48700 5 10 0 0 0 0 1
device=NPN_TRANSISTOR
T 50300 48800 5 10 1 1 0 0 1
refdes=Q3
T 50300 48600 5 10 1 1 0 0 1
footprint=SOT23
T 50300 48400 5 10 1 1 0 0 1
value=BC846
T 50300 48200 5 10 0 1 0 0 1
model-name=BC846
}
C 49800 49200 1 90 0 resistor-2.sym
{
T 49450 49600 5 10 0 0 90 0 1
device=RESISTOR
T 49700 49650 5 10 1 1 90 4 1
refdes=R7
T 49900 49650 5 10 0 1 90 4 1
footprint=c0603
T 49450 49650 5 10 1 1 90 4 1
value=1MegΩ
T 49100 49400 5 10 0 0 90 0 1
symversion=0.1
}
N 50200 49700 50200 49200 4
C 50100 47900 1 0 0 gnd-1.sym
C 50800 50100 1 0 0 resistor-2.sym
{
T 51200 50450 5 10 0 0 0 0 1
device=RESISTOR
T 51250 50200 5 10 1 1 0 4 1
refdes=R6
T 51250 50000 5 10 0 1 0 4 1
footprint=c0603
T 51250 50450 5 10 1 1 0 4 1
value=10kΩ
T 51000 50800 5 10 0 0 0 0 1
symversion=0.1
}
C 51600 47900 1 0 0 gnd-1.sym
N 51700 50200 51700 49200 4
C 49500 47700 1 270 0 io-1.sym
{
T 49700 46800 5 10 0 0 270 0 1
net=ON:1
T 50100 47500 5 10 0 0 270 0 1
device=none
T 49600 47200 5 10 1 1 270 4 1
value=ON
}
N 49600 48600 49600 48700 4
{
T 49525 48650 5 5 1 1 90 4 1
netname=q3b
}
C 51000 47700 1 270 0 io-1.sym
{
T 51200 46800 5 10 0 0 270 0 1
net=OFF:1
T 51600 47500 5 10 0 0 270 0 1
device=none
T 51100 47200 5 10 1 1 270 4 1
value=OFF
}
N 51700 50200 52400 50200 4
C 46200 51100 1 0 0 diode-1.sym
{
T 46600 51700 5 10 0 0 0 0 1
device=DIODE
T 46300 51200 5 10 0 1 0 0 1
footprint=SOD523
T 46300 51000 5 10 0 1 0 0 1
value=1N4148
T 46600 51500 5 10 1 1 0 0 1
refdes=D1
T 46600 50900 5 10 0 0 0 0 1
model-name=1N4148
}
C 45200 51200 1 0 0 resistor-2.sym
{
T 45600 51550 5 10 0 0 0 0 1
device=RESISTOR
T 45650 51300 5 10 1 1 0 4 1
refdes=R1
T 45650 51100 5 10 0 1 0 4 1
footprint=c0603
T 45650 51550 5 10 1 1 0 4 1
value=10kΩ
T 45400 51900 5 10 0 0 0 0 1
symversion=0.1
}
N 42600 51300 45200 51300 4
N 47100 51300 47500 51300 4
N 47500 51300 47500 50200 4
C 48300 49100 1 0 0 io-1.sym
{
T 49200 49300 5 10 0 0 0 0 1
net=HVM:1
T 48500 49700 5 10 0 0 0 0 1
device=none
T 48800 49200 5 10 1 1 0 4 1
value=HVM
}
C 52300 47900 1 0 0 gnd-1.sym
N 52400 49100 52400 49200 4
N 52400 50200 52400 50100 4
C 52800 49100 1 0 0 io-1.sym
{
T 53700 49300 5 10 0 0 0 0 1
net=HRM:1
T 53000 49700 5 10 0 0 0 0 1
device=none
T 53300 49200 5 10 1 1 0 4 1
value=HRM
}
C 52500 49200 1 90 0 resistor-2.sym
{
T 52150 49600 5 10 0 0 90 0 1
device=RESISTOR
T 52400 49650 5 10 1 1 90 4 1
refdes=R9
T 52600 49650 5 10 0 1 90 4 1
footprint=c0603
T 52150 49650 5 10 1 1 90 4 1
value=1MegΩ
T 51800 49400 5 10 0 0 90 0 1
symversion=0.1
}
C 52500 48200 1 90 0 resistor-2.sym
{
T 52150 48600 5 10 0 0 90 0 1
device=RESISTOR
T 52400 48650 5 10 1 1 90 4 1
refdes=R12
T 52600 48650 5 10 0 1 90 4 1
footprint=c0603
T 52150 48650 5 10 1 1 90 4 1
value=121kΩ
T 51800 48400 5 10 0 0 90 0 1
symversion=0.1
}
N 52800 49200 52400 49200 4
C 53000 48200 1 90 0 capacitor-1.sym
{
T 52300 48400 5 10 0 0 90 0 1
device=CAPACITOR
T 52100 48400 5 10 0 0 90 0 1
symversion=0.2
T 52300 48400 5 10 0 1 90 0 1
footprint=c0603
T 52850 48550 5 10 1 1 180 6 1
refdes=C8
T 52650 48550 5 10 0 1 270 0 1
value=100nF
}
C 52700 47900 1 0 0 gnd-1.sym
N 52800 49200 52800 49100 4
C 48500 48200 1 90 0 capacitor-1.sym
{
T 47800 48400 5 10 0 0 90 0 1
device=CAPACITOR
T 47600 48400 5 10 0 0 90 0 1
symversion=0.2
T 47800 48400 5 10 0 1 90 0 1
footprint=c0603
T 48350 48550 5 10 1 1 180 6 1
refdes=C7
T 48150 48550 5 10 0 1 270 0 1
value=100nF
}
C 48200 47900 1 0 0 gnd-1.sym
N 48300 49200 47900 49200 4
N 48300 49100 48300 49200 4
N 41700 49700 41600 49700 4
N 46100 51300 46200 51300 4
{
T 46150 51375 5 5 1 1 0 4 1
netname=pwmv1
}
N 49700 49200 50200 49200 4
{
T 49850 49275 5 5 1 1 0 4 1
netname=q1g
}
C 49700 47700 1 90 0 resistor-2.sym
{
T 49350 48100 5 10 0 0 90 0 1
device=RESISTOR
T 49600 48150 5 10 1 1 90 4 1
refdes=R10
T 49800 48150 5 10 0 1 90 4 1
footprint=c0603
T 49350 48150 5 10 1 1 90 4 1
value=100kΩ
T 49000 47900 5 10 0 0 90 0 1
symversion=0.1
}
C 51200 47700 1 90 0 resistor-2.sym
{
T 50850 48100 5 10 0 0 90 0 1
device=RESISTOR
T 51100 48150 5 10 1 1 90 4 1
refdes=R20
T 51300 48150 5 10 0 1 90 4 1
footprint=c0603
T 50850 48150 5 10 1 1 90 4 1
value=100kΩ
T 50500 47900 5 10 0 0 90 0 1
symversion=0.1
}
N 51100 48600 51100 48700 4
{
T 51025 48650 5 5 1 1 90 4 1
netname=q2b
}
N 49700 50100 49700 50200 4
C 40400 45100 1 0 0 vdc-1.sym
{
T 44300 46650 5 10 1 1 0 0 1
refdes=VCC
T 41100 45950 5 10 0 0 0 0 1
device=VOLTAGE_SOURCE
T 41100 46150 5 10 0 0 0 0 1
footprint=none
T 45000 46650 5 10 1 1 0 0 1
value=DC 5V
}
C 41400 45100 1 0 0 vpulse-1.sym
{
T 44300 46350 5 10 1 1 0 0 1
refdes=VPWM
T 42100 45950 5 10 0 0 0 0 1
device=vpulse
T 42100 46150 5 10 0 0 0 0 1
footprint=none
T 45000 46350 5 10 1 1 0 0 1
value=pulse(0V 5V 0 100ns 100ns 40us 100us 0)
}
C 40500 43500 1 0 0 spice-directive-1.sym
{
T 40600 43800 5 10 0 1 0 0 1
device=directive
T 40600 43900 5 10 1 1 0 0 1
refdes=A9
T 40500 42900 5 10 1 1 0 0 4
value=.tran 100ns 1000ms
.width out=255
.print tran V(PWM) V(ON) V(OFF) V(HVM) V(HVR) V(HRM) V(pwmd2) V(pwmd3) V(hv)
*# set nobreak
}
C 52100 45600 1 0 0 spice-model-1.sym
{
T 52200 46300 5 10 0 1 0 0 1
device=model
T 52200 46200 5 10 1 1 0 0 1
refdes=A2
T 53400 45900 5 10 1 1 0 0 1
model-name=BC846
T 52600 45700 5 10 1 1 0 0 1
file=bc846.ckt
}
C 52100 44800 1 0 0 spice-model-1.sym
{
T 52200 45500 5 10 0 1 0 0 1
device=model
T 52200 45400 5 10 1 1 0 0 1
refdes=A3
T 53400 45100 5 10 1 1 0 0 1
model-name=1N4148
T 52600 44900 5 10 1 1 0 0 1
file=1N4148.LIB
}
C 42600 50000 1 0 0 diode-1.sym
{
T 43000 50600 5 10 0 0 0 0 1
device=DIODE
T 42700 50100 5 10 0 1 0 0 1
footprint=SOD523
T 42700 49900 5 10 0 1 0 0 1
value=1N4148
T 43000 50400 5 10 1 1 0 0 1
refdes=D2
T 43000 49800 5 10 0 0 0 0 1
model-name=1N4148
}
C 44400 50000 1 0 0 diode-1.sym
{
T 44800 50600 5 10 0 0 0 0 1
device=DIODE
T 44500 50100 5 10 0 1 0 0 1
footprint=SOD523
T 44500 49900 5 10 0 1 0 0 1
value=1N4148
T 44800 50400 5 10 1 1 0 0 1
refdes=D3
T 44800 49800 5 10 0 0 0 0 1
model-name=1N4148
}
C 46200 50000 1 0 0 diode-1.sym
{
T 46600 50600 5 10 0 0 0 0 1
device=DIODE
T 46300 50100 5 10 0 1 0 0 1
footprint=SOD523
T 46300 49900 5 10 0 1 0 0 1
value=1N4148
T 46600 50400 5 10 1 1 0 0 1
refdes=D4
T 46600 49800 5 10 0 0 0 0 1
model-name=1N4148
}
C 40500 46300 1 0 0 vcc-1.sym
C 40600 44800 1 0 0 gnd-1.sym
C 41600 44800 1 0 0 gnd-1.sym
C 41800 46300 1 90 0 io-1.sym
{
T 41600 47200 5 10 0 0 90 0 1
net=PWM:1
T 41200 46500 5 10 0 0 90 0 1
device=none
T 41700 46800 5 10 1 1 90 4 1
value=PWM
}
C 43200 45100 1 0 0 vpulse-1.sym
{
T 44300 45750 5 10 1 1 0 0 1
refdes=VON
T 43900 45950 5 10 0 0 0 0 1
device=vpulse
T 43900 46150 5 10 0 0 0 0 1
footprint=none
T 45000 45750 5 10 1 1 0 0 1
value=pulse(0V 5V 500ms 100ns 100ns  390ms 1000ms 0)
}
C 43400 44800 1 0 0 gnd-1.sym
C 43600 46300 1 90 0 io-1.sym
{
T 43400 47200 5 10 0 0 90 0 1
net=ON:1
T 43000 46500 5 10 0 0 90 0 1
device=none
T 43500 46800 5 10 1 1 90 4 1
value=ON
}
C 42300 45100 1 0 0 vpulse-1.sym
{
T 43000 45950 5 10 0 0 0 0 1
device=vpulse
T 43000 46150 5 10 0 0 0 0 1
footprint=none
T 44300 46050 5 10 1 1 0 0 1
refdes=VOFF
T 45000 46050 5 10 1 1 0 0 1
value=pulse(5V 0V 0.1ms 100ns 100ns 900ms 1000ms 0)
}
C 42500 44800 1 0 0 gnd-1.sym
C 42700 46300 1 90 0 io-1.sym
{
T 42500 47200 5 10 0 0 90 0 1
net=OFF:1
T 42100 46500 5 10 0 0 90 0 1
device=none
T 42600 46800 5 10 1 1 90 4 1
value=OFF
}
C 52100 46400 1 0 0 spice-model-1.sym
{
T 52200 47100 5 10 0 1 0 0 1
device=model
T 52200 47000 5 10 1 1 0 0 1
refdes=A1
T 53400 46700 5 10 1 1 0 0 1
model-name=BSS84
T 52600 46500 5 10 1 1 0 0 1
file=BSS84.prm
}
