v 20220529 2
C 39400 40800 0 0 0 title-B.sym
{
T 49400 41800 19 25 1 1 0 0 1
title=atfuses
T 53500 41200 19 10 1 1 0 0 1
version=v01
T 53500 40900 19 10 1 1 0 0 1
author=SiB
T 49400 41500 19 10 1 1 0 0 1
git=https://codeberg.org/SiB64/atfuses.git
T 49400 41200 19 10 1 1 0 0 1
file=atfuses.sch
}
C 40700 50100 1 0 0 resistor-2.sym
{
T 41100 50450 5 10 0 0 0 0 1
device=RESISTOR
T 41150 50200 5 10 1 1 0 4 1
refdes=R3
T 41150 50000 5 10 0 1 0 4 1
footprint=c0603
T 41150 50450 5 10 1 1 0 4 1
value=100Ω
T 40900 50800 5 10 0 0 0 0 1
symversion=0.1
}
C 55200 48600 1 270 0 capacitor-4.sym
{
T 56300 48400 5 10 0 0 270 0 1
device=POLARIZED_CAPACITOR
T 55300 48400 5 10 1 1 90 4 1
refdes=C9
T 55900 48400 5 10 0 0 270 0 1
symversion=0.2
T 55900 48200 5 10 0 1 90 4 1
footprint=p1206
T 55700 48200 5 10 0 1 90 4 1
value=10µF
}
C 41500 42700 1 0 0 header6.sym
{
T 41500 43900 5 10 0 1 0 0 1
device=HEADER6
T 42100 44000 5 10 1 1 0 0 1
refdes=J3
T 42500 41200 5 10 0 1 0 0 1
footprint=HE_100mil_6_2
}
C 52400 50100 1 0 0 io-1.sym
{
T 53300 50300 5 10 0 0 0 0 1
net=HVR:1
T 52600 50700 5 10 0 0 0 0 1
device=none
T 52900 50200 5 10 1 1 0 4 1
value=HVR
}
C 42300 46400 1 0 0 led-3.sym
{
T 43250 47050 5 10 0 0 0 0 1
device=LED
T 42800 46600 5 8 1 1 0 4 1
refdes=D5
T 42500 46300 5 10 0 1 0 0 1
footprint=c0603
T 42200 46300 5 10 0 1 0 0 1
value=LED red
}
C 42000 46700 1 270 0 gnd-1.sym
C 55100 47700 1 90 0 capacitor-1.sym
{
T 54400 47900 5 10 0 0 90 0 1
device=CAPACITOR
T 54200 47900 5 10 0 0 90 0 1
symversion=0.2
T 54400 47900 5 10 0 1 90 0 1
footprint=c0603
T 54950 48050 5 10 1 1 180 6 1
refdes=C11
T 54850 48050 5 10 0 1 180 0 1
value=100nF
}
C 54700 48400 1 0 0 vcc-1.sym
C 54800 47600 1 0 0 gnd-1.sym
N 54900 48400 54900 48600 4
N 54900 47900 54900 47700 4
C 42700 43800 1 0 0 header2.sym
{
T 42900 44800 5 10 0 0 0 0 1
device=CONNECTOR_2
T 42800 44450 5 10 1 1 0 0 1
refdes=J5
T 43100 43900 5 5 0 1 90 0 1
footprint=HE_100mil_2_2
}
C 42600 50400 1 180 0 capacitor-1.sym
{
T 42400 49700 5 10 0 0 180 0 1
device=CAPACITOR
T 42400 49500 5 10 0 0 180 0 1
symversion=0.2
T 42400 49700 5 10 0 1 180 0 1
footprint=c0603
T 42050 50250 5 10 1 1 0 6 1
refdes=C1
T 42050 50050 5 10 0 1 0 6 1
value=100nF
}
N 41600 50200 41700 50200 4
{
T 41650 50275 5 5 1 1 0 4 1
netname=pwmr
}
C 40700 50300 1 180 0 io-1.sym
{
T 39800 50100 5 10 0 0 180 0 1
net=PWM:1
T 40500 49700 5 10 0 0 180 0 1
device=none
T 40200 50200 5 10 1 1 180 4 1
value=PWM
}
C 42600 50000 1 0 0 diode-1.sym
{
T 43000 50600 5 10 0 0 0 0 1
device=DIODE
T 42700 50100 5 10 0 1 0 0 1
footprint=SOD523
T 42700 49900 5 10 0 1 0 0 1
value=1N4148
T 43000 50400 5 10 1 1 0 0 1
refdes=D2
}
C 43500 50100 1 0 0 resistor-2.sym
{
T 43900 50450 5 10 0 0 0 0 1
device=RESISTOR
T 43950 50200 5 10 1 1 0 4 1
refdes=R4
T 43950 50000 5 10 0 1 0 4 1
footprint=c0603
T 43950 50450 5 10 1 1 0 4 1
value=10kΩ
T 43700 50800 5 10 0 0 0 0 1
symversion=0.1
}
C 44400 50000 1 0 0 diode-1.sym
{
T 44800 50600 5 10 0 0 0 0 1
device=DIODE
T 44500 50100 5 10 0 1 0 0 1
footprint=SOD523
T 44500 49900 5 10 0 1 0 0 1
value=1N4148
T 44800 50400 5 10 1 1 0 0 1
refdes=D3
}
C 45300 50100 1 0 0 resistor-2.sym
{
T 45700 50450 5 10 0 0 0 0 1
device=RESISTOR
T 45750 50200 5 10 1 1 0 4 1
refdes=R5
T 45750 50000 5 10 0 1 0 4 1
footprint=c0603
T 45750 50450 5 10 1 1 0 4 1
value=10kΩ
T 45500 50800 5 10 0 0 0 0 1
symversion=0.1
}
C 46200 50000 1 0 0 diode-1.sym
{
T 46600 50600 5 10 0 0 0 0 1
device=DIODE
T 46300 50100 5 10 0 1 0 0 1
footprint=SOD523
T 46300 49900 5 10 0 1 0 0 1
value=1N4148
T 46600 50400 5 10 1 1 0 0 1
refdes=D4
}
C 43700 48200 1 90 0 capacitor-1.sym
{
T 43000 48400 5 10 0 0 90 0 1
device=CAPACITOR
T 42800 48400 5 10 0 0 90 0 1
symversion=0.2
T 43000 48400 5 10 0 1 90 0 1
footprint=c0603
T 43550 48550 5 10 1 1 180 6 1
refdes=C5
T 43450 48550 5 10 0 1 180 0 1
value=100nF
}
N 43500 49100 43500 50200 4
{
T 43550 49925 5 5 1 1 0 4 1
netname=pwmd2
}
C 43400 47900 1 0 0 gnd-1.sym
C 45200 47900 1 0 0 gnd-1.sym
N 45300 49100 45300 50200 4
{
T 45350 49925 5 5 1 1 0 4 1
netname=pwmd3
}
C 45500 48200 1 90 0 capacitor-1.sym
{
T 44800 48400 5 10 0 0 90 0 1
device=CAPACITOR
T 44600 48400 5 10 0 0 90 0 1
symversion=0.2
T 44800 48400 5 10 0 1 90 0 1
footprint=c0603
T 45350 48550 5 10 1 1 180 6 1
refdes=C6
T 45250 48550 5 10 0 1 180 0 1
value=100nF
}
C 47000 47900 1 0 0 gnd-1.sym
N 47100 49100 47100 50200 4
C 42600 49900 1 180 0 capacitor-1.sym
{
T 42400 49200 5 10 0 0 180 0 1
device=CAPACITOR
T 42400 49000 5 10 0 0 180 0 1
symversion=0.2
T 42400 49200 5 10 0 1 180 0 1
footprint=c0603
T 42050 49750 5 10 1 1 0 6 1
refdes=C2
T 42050 49550 5 10 0 1 0 6 1
value=100nF
}
C 42600 49400 1 180 0 capacitor-1.sym
{
T 42400 48700 5 10 0 0 180 0 1
device=CAPACITOR
T 42400 48500 5 10 0 0 180 0 1
symversion=0.2
T 42400 48700 5 10 0 1 180 0 1
footprint=c0603
T 42050 49250 5 10 1 1 0 6 1
refdes=C3
T 42050 49050 5 10 0 1 0 6 1
value=100nF
}
N 41700 49200 41600 49200 4
N 41600 49200 41600 50200 4
N 42600 49700 44400 49700 4
{
T 42650 49775 5 5 1 1 0 4 1
netname=pwmc2
}
N 44400 49700 44400 50200 4
N 42600 49200 46200 49200 4
{
T 42650 49275 5 5 1 1 0 4 1
netname=pwmc3
}
N 46200 49200 46200 50200 4
C 42700 50400 1 90 0 resistor-2.sym
{
T 42350 50800 5 10 0 0 90 0 1
device=RESISTOR
T 42600 50850 5 10 1 1 90 4 1
refdes=R2
T 42800 50850 5 10 0 1 90 4 1
footprint=c0603
T 42350 50850 5 10 1 1 90 4 1
value=10kΩ
T 42000 50600 5 10 0 0 90 0 1
symversion=0.1
}
N 42600 50200 42600 50400 4
{
T 42650 50125 5 5 1 1 0 4 1
netname=pwmc1
}
C 42400 51300 1 0 0 vcc-1.sym
C 46900 49100 1 270 0 capacitor-4.sym
{
T 48000 48900 5 10 0 0 270 0 1
device=POLARIZED_CAPACITOR
T 47000 48900 5 10 1 1 90 4 1
refdes=C4
T 47600 48900 5 10 0 0 270 0 1
symversion=0.2
T 47600 48700 5 10 0 1 90 4 1
footprint=p1206
T 47400 48700 5 10 0 1 90 4 1
value=10µF
}
C 48000 49200 1 90 0 resistor-2.sym
{
T 47650 49600 5 10 0 0 90 0 1
device=RESISTOR
T 47900 49650 5 10 1 1 90 4 1
refdes=R8
T 48100 49650 5 10 0 1 90 4 1
footprint=c0603
T 47650 49650 5 10 1 1 90 4 1
value=1MΩ
T 47300 49400 5 10 0 0 90 0 1
symversion=0.1
}
C 48000 48200 1 90 0 resistor-2.sym
{
T 47650 48600 5 10 0 0 90 0 1
device=RESISTOR
T 47900 48650 5 10 1 1 90 4 1
refdes=R11
T 48100 48650 5 10 0 1 90 4 1
footprint=c0603
T 47650 48650 5 10 1 1 90 4 1
value=121kΩ
T 47300 48400 5 10 0 0 90 0 1
symversion=0.1
}
N 47100 50200 50000 50200 4
{
T 47150 50275 5 5 1 1 0 4 1
netname=hv
}
C 47800 47900 1 0 0 gnd-1.sym
N 47900 49100 47900 49200 4
N 47900 50200 47900 50100 4
C 50000 49700 1 270 1 pmos-ub.sym
{
T 51400 50300 5 10 0 0 270 6 1
device=PMOS_TRANSISTOR
T 50300 49500 5 10 1 1 180 6 1
refdes=Q1
T 50300 49700 5 10 1 1 180 6 1
footprint=SOT23
T 50300 49900 5 10 1 1 180 6 1
value=BSS84
}
C 51100 48200 1 0 0 npn-sot23.sym
{
T 52000 48700 5 10 0 0 0 0 1
device=NPN_TRANSISTOR
T 50900 49300 5 10 1 1 0 0 1
refdes=Q2
T 50900 49100 5 10 1 1 0 0 1
footprint=SOT23
T 50900 48900 5 10 1 1 0 0 1
value=BC846
}
C 49600 48200 1 0 0 npn-sot23.sym
{
T 50500 48700 5 10 0 0 0 0 1
device=NPN_TRANSISTOR
T 50300 48800 5 10 1 1 0 0 1
refdes=Q3
T 50300 48600 5 10 1 1 0 0 1
footprint=SOT23
T 50300 48400 5 10 1 1 0 0 1
value=BC846
}
C 49800 49200 1 90 0 resistor-2.sym
{
T 49450 49600 5 10 0 0 90 0 1
device=RESISTOR
T 49700 49650 5 10 1 1 90 4 1
refdes=R7
T 49900 49650 5 10 0 1 90 4 1
footprint=c0603
T 49450 49650 5 10 1 1 90 4 1
value=1MΩ
T 49100 49400 5 10 0 0 90 0 1
symversion=0.1
}
N 50200 49700 50200 49200 4
C 50100 47900 1 0 0 gnd-1.sym
C 50800 50100 1 0 0 resistor-2.sym
{
T 51200 50450 5 10 0 0 0 0 1
device=RESISTOR
T 51250 50200 5 10 1 1 0 4 1
refdes=R6
T 51250 50000 5 10 0 1 0 4 1
footprint=c0603
T 51250 50450 5 10 1 1 0 4 1
value=10kΩ
T 51000 50800 5 10 0 0 0 0 1
symversion=0.1
}
C 51600 47900 1 0 0 gnd-1.sym
N 51700 50200 51700 49200 4
C 49500 47700 1 270 0 io-1.sym
{
T 49700 46800 5 10 0 0 270 0 1
net=ON:1
T 50100 47500 5 10 0 0 270 0 1
device=none
T 49600 47200 5 10 1 1 270 4 1
value=ON
}
N 49600 48600 49600 48700 4
{
T 49525 48650 5 5 1 1 90 4 1
netname=q3b
}
C 51000 47700 1 270 0 io-1.sym
{
T 51200 46800 5 10 0 0 270 0 1
net=OFF:1
T 51600 47500 5 10 0 0 270 0 1
device=none
T 51100 47200 5 10 1 1 270 4 1
value=OFF
}
N 51700 50200 52400 50200 4
C 46200 51100 1 0 0 diode-1.sym
{
T 46600 51700 5 10 0 0 0 0 1
device=DIODE
T 46300 51200 5 10 0 1 0 0 1
footprint=SOD523
T 46300 51000 5 10 0 1 0 0 1
value=1N4148
T 46600 51500 5 10 1 1 0 0 1
refdes=D1
}
C 45200 51200 1 0 0 resistor-2.sym
{
T 45600 51550 5 10 0 0 0 0 1
device=RESISTOR
T 45650 51300 5 10 1 1 0 4 1
refdes=R1
T 45650 51100 5 10 0 1 0 4 1
footprint=c0603
T 45650 51550 5 10 1 1 0 4 1
value=10kΩ
T 45400 51900 5 10 0 0 0 0 1
symversion=0.1
}
N 42600 51300 45200 51300 4
N 47100 51300 47500 51300 4
N 47500 51300 47500 50200 4
C 45500 44200 1 180 0 io-1.sym
{
T 44600 44000 5 10 0 0 180 0 1
net=PWM:1
T 45300 43600 5 10 0 0 180 0 1
device=none
T 45000 44100 5 10 1 1 180 4 1
value=PWM
}
C 48300 49100 1 0 0 io-1.sym
{
T 49200 49300 5 10 0 0 0 0 1
net=HVM:1
T 48500 49700 5 10 0 0 0 0 1
device=none
T 48800 49200 5 10 1 1 0 4 1
value=HVM
}
C 45500 45700 1 180 0 io-1.sym
{
T 44600 45500 5 10 0 0 180 0 1
net=HVM:1
T 45300 45100 5 10 0 0 180 0 1
device=none
T 45000 45600 5 10 1 1 180 4 1
value=HVM
}
C 47700 46500 1 0 0 io-1.sym
{
T 48600 46700 5 10 0 0 0 0 1
net=HVM:1
T 47900 47100 5 10 0 0 0 0 1
device=none
T 48200 46600 5 10 1 1 0 4 1
value=HVM
}
C 47700 44700 1 0 0 io-1.sym
{
T 48600 44900 5 10 0 0 0 0 1
net=RES:1
T 47900 45300 5 10 0 0 0 0 1
device=none
T 48200 44800 5 10 1 1 0 4 1
value=RES
}
C 40500 43600 1 90 0 io-1.sym
{
T 40300 44500 5 10 0 0 90 0 1
net=RES:1
T 39900 43800 5 10 0 0 90 0 1
device=none
T 40400 44100 5 10 1 1 90 4 1
value=RES
}
N 42900 43700 42900 44000 4
{
T 43050 43775 5 5 1 1 0 4 1
netname=vcc3
}
N 42900 44000 43000 44000 4
C 42700 44500 1 0 0 vcc-1.sym
N 42900 44300 43000 44300 4
N 42900 44500 42900 44300 4
C 43200 42800 1 90 0 gnd-1.sym
C 45500 41400 1 90 0 capacitor-1.sym
{
T 44800 41600 5 10 0 0 90 0 1
device=CAPACITOR
T 44600 41600 5 10 0 0 90 0 1
symversion=0.1
T 45200 41900 5 10 0 1 0 0 1
footprint=c0603
T 45200 41300 5 10 1 1 90 0 1
refdes=C23
T 45500 41300 5 10 1 1 90 0 1
value=15pF
}
N 44400 43100 44400 42300 4
N 45300 42300 45300 42900 4
{
T 45225 42750 5 5 1 1 90 4 1
netname=Q4.PB7
}
C 44500 42200 1 0 0 crystal-4.sym
{
T 44700 42700 5 10 0 0 0 0 1
device=CRYSTAL
T 44700 42900 5 10 0 0 0 0 1
symversion=0.1
T 44700 42700 5 10 0 1 0 0 1
footprint=LCC_1_4
T 44700 42500 5 10 1 1 0 0 1
refdes=Q4
T 44600 42000 5 10 1 1 0 0 1
value=11.0592MHz
T 44700 42800 5 5 1 1 0 0 1
net=GND:2
T 44700 42700 5 5 1 1 0 0 1
net=GND:4
}
N 44500 42300 44400 42300 4
N 45200 42300 45300 42300 4
N 44400 43100 45300 43100 4
{
T 44550 43175 5 5 1 1 0 4 1
netname=Q4.PB6
}
C 44600 41400 1 90 0 capacitor-1.sym
{
T 44600 41300 5 10 1 1 90 0 1
value=15pF
T 44300 41300 5 10 1 1 90 0 1
refdes=C22
T 43900 41600 5 10 0 0 90 0 1
device=CAPACITOR
T 43700 41600 5 10 0 0 90 0 1
symversion=0.1
T 44400 41800 5 10 0 1 0 0 1
footprint=c0603
}
T 41850 43300 5 5 1 1 0 1 1
netname=SCK
T 41850 42900 5 5 1 1 0 1 1
netname=Reset
T 42550 43300 5 5 1 1 180 1 1
netname=MOSI
T 42550 43700 5 5 1 1 180 1 1
netname=Vcc
T 42550 42900 5 5 1 1 180 1 1
netname=GND
T 41850 43700 5 5 1 1 0 1 1
netname=MISO
C 44300 41100 1 0 0 gnd-1.sym
C 45200 41100 1 0 0 gnd-1.sym
C 50000 46400 1 180 1 DB9-1.sym
{
T 51000 43500 5 10 0 0 180 6 1
device=DB9
T 50200 43300 5 10 1 1 180 6 1
refdes=CONN1
T 50200 42900 5 10 1 1 0 0 1
footprint=DB9F
T 50200 42700 5 10 1 1 0 0 1
value=D9-Female-E-90°
T 50200 42500 5 10 1 1 0 0 1
net=GND:10,11
}
C 52900 42800 1 0 0 max232.sym
{
T 53200 46450 5 10 0 0 0 0 1
device=MAX232
T 54600 46300 5 10 1 1 0 6 1
refdes=U2
T 53200 46650 5 10 1 1 0 0 1
footprint=SO16
T 53200 46500 5 10 1 1 0 0 1
value=MAX3232EIDR
T 53200 42600 5 10 1 1 0 0 1
net=Vcc:16
T 53900 42600 5 10 1 1 0 0 1
net=GND:15
}
C 51900 45700 1 0 0 capacitor-1.sym
{
T 52100 46400 5 10 0 0 0 0 1
device=CAPACITOR
T 52100 46600 5 10 0 0 0 0 1
symversion=0.1
T 52400 45700 5 10 0 1 0 0 1
footprint=c0603
T 51800 45800 5 10 1 1 0 1 1
refdes=C13
T 52400 45800 5 10 0 1 0 1 1
value=100nF
}
N 52900 45500 51900 45500 4
{
T 52500 45550 5 8 1 1 0 6 1
netname=MC1-
}
N 51900 45500 51900 45900 4
C 51900 44900 1 0 0 capacitor-1.sym
{
T 52100 45600 5 10 0 0 0 0 1
device=CAPACITOR
T 52100 45800 5 10 0 0 0 0 1
symversion=0.1
T 52400 44900 5 10 0 1 0 0 1
footprint=c0603
T 51800 45000 5 10 1 1 0 1 1
refdes=C15
T 52400 45000 5 10 0 1 0 1 1
value=100nF
}
N 51900 44700 52900 44700 4
{
T 52500 44750 5 8 1 1 0 6 1
netname=MC2-
}
N 51900 44700 51900 45100 4
N 52800 45900 52900 45900 4
{
T 52600 45950 5 8 1 1 0 0 1
netname=MC1+
}
N 52800 45100 52900 45100 4
{
T 52600 45150 5 8 1 1 0 0 1
netname=MC2+
}
C 55000 45700 1 0 0 capacitor-1.sym
{
T 55200 46400 5 10 0 0 0 0 1
device=CAPACITOR
T 55200 46600 5 10 0 0 0 0 1
symversion=0.1
T 55500 45700 5 10 0 1 0 0 1
footprint=c0603
T 54800 45800 5 10 1 1 0 1 1
refdes=C14
T 55500 45800 5 10 0 1 0 1 1
value=100nF
}
C 55000 44900 1 0 0 capacitor-1.sym
{
T 55200 45600 5 10 0 0 0 0 1
device=CAPACITOR
T 55200 45800 5 10 0 0 0 0 1
symversion=0.1
T 55500 44900 5 10 0 1 0 0 1
footprint=c0603
T 54800 45000 5 10 1 1 0 1 1
refdes=C16
T 55500 45000 5 10 0 1 0 1 1
value=100nF
}
N 55900 45900 55900 45100 4
N 55000 45900 54900 45900 4
{
T 55250 45950 5 8 1 1 0 6 1
netname=MV+
}
N 54900 45100 55000 45100 4
{
T 55250 45150 5 8 1 1 0 6 1
netname=MV-
}
N 51200 44300 52900 44300 4
{
T 52400 44350 5 7 1 1 0 0 1
netname=TxDD
}
N 51600 43100 52900 43100 4
{
T 52400 43150 5 7 1 1 0 0 1
netname=RxDD
}
C 56200 45000 1 90 0 gnd-1.sym
C 51500 46000 1 90 0 gnd-1.sym
C 45500 47100 1 180 0 io-1.sym
{
T 44600 46900 5 10 0 0 180 0 1
net=RxD:1
T 45300 46500 5 10 0 0 180 0 1
device=none
T 45000 47000 5 10 1 1 180 4 1
value=RxD
}
C 45500 46900 1 180 0 io-1.sym
{
T 44600 46700 5 10 0 0 180 0 1
net=TxD:1
T 45300 46300 5 10 0 0 180 0 1
device=none
T 45000 46800 5 10 1 1 180 4 1
value=TxD
}
C 54900 43000 1 0 0 io-1.sym
{
T 55800 43200 5 10 0 0 0 0 1
net=RxD:1
T 55100 43600 5 10 0 0 0 0 1
device=none
T 55400 43100 5 10 1 1 0 4 1
value=RxD
}
C 54900 44200 1 0 0 io-1.sym
{
T 55800 44400 5 10 0 0 0 0 1
net=TxD:1
T 55100 44800 5 10 0 0 0 0 1
device=none
T 55400 44300 5 10 1 1 0 4 1
value=TxD
}
C 47700 45100 1 0 0 io-1.sym
{
T 48600 45300 5 10 0 0 0 0 1
net=SDA:1
T 47900 45700 5 10 0 0 0 0 1
device=none
T 48200 45200 5 10 1 1 0 4 1
value=SDA
}
C 47700 44900 1 0 0 io-1.sym
{
T 48600 45100 5 10 0 0 0 0 1
net=SCL:1
T 47900 45500 5 10 0 0 0 0 1
device=none
T 48200 45000 5 10 1 1 0 4 1
value=SCL
}
C 52300 47900 1 0 0 gnd-1.sym
N 52400 49100 52400 49200 4
N 52400 50200 52400 50100 4
C 52800 49100 1 0 0 io-1.sym
{
T 53700 49300 5 10 0 0 0 0 1
net=HRM:1
T 53000 49700 5 10 0 0 0 0 1
device=none
T 53300 49200 5 10 1 1 0 4 1
value=HRM
}
C 47700 46300 1 0 0 io-1.sym
{
T 48600 46500 5 10 0 0 0 0 1
net=HRM:1
T 47900 46900 5 10 0 0 0 0 1
device=none
T 48200 46400 5 10 1 1 0 4 1
value=HRM
}
C 52500 49200 1 90 0 resistor-2.sym
{
T 52150 49600 5 10 0 0 90 0 1
device=RESISTOR
T 52400 49650 5 10 1 1 90 4 1
refdes=R9
T 52600 49650 5 10 0 1 90 4 1
footprint=c0603
T 52150 49650 5 10 1 1 90 4 1
value=1MΩ
T 51800 49400 5 10 0 0 90 0 1
symversion=0.1
}
C 52500 48200 1 90 0 resistor-2.sym
{
T 52150 48600 5 10 0 0 90 0 1
device=RESISTOR
T 52400 48650 5 10 1 1 90 4 1
refdes=R12
T 52600 48650 5 10 0 1 90 4 1
footprint=c0603
T 52150 48650 5 10 1 1 90 4 1
value=121kΩ
T 51800 48400 5 10 0 0 90 0 1
symversion=0.1
}
C 48900 44700 1 0 0 gnd-1.sym
N 49000 46700 49000 46800 4
C 48800 46700 1 0 0 vcc-1.sym
N 49000 45000 49000 44900 4
N 47900 45800 49000 45800 4
{
T 48650 45875 5 5 1 1 0 4 1
netname=vcc_mon
}
C 49100 45900 1 90 0 resistor-2.sym
{
T 48750 46300 5 10 0 0 90 0 1
device=RESISTOR
T 49000 46350 5 10 1 1 90 4 1
refdes=R17
T 49200 46350 5 10 0 1 90 4 1
footprint=c0603
T 48750 46350 5 10 1 1 90 4 1
value=1MΩ
T 48400 46100 5 10 0 0 90 0 1
symversion=0.1
}
C 49100 44900 1 90 0 resistor-2.sym
{
T 48750 45300 5 10 0 0 90 0 1
device=RESISTOR
T 49000 45350 5 10 1 1 90 4 1
refdes=R19
T 49200 45350 5 10 0 1 90 4 1
footprint=c0603
T 48750 45350 5 10 1 1 90 4 1
value=121kΩ
T 48400 45100 5 10 0 0 90 0 1
symversion=0.1
}
C 47700 45500 1 0 0 io-1.sym
{
T 48600 45700 5 10 0 0 0 0 1
net=ON:1
T 47900 46100 5 10 0 0 0 0 1
device=none
T 48200 45600 5 10 1 1 0 4 1
value=ON
}
C 47700 45300 1 0 0 io-1.sym
{
T 48600 45500 5 10 0 0 0 0 1
net=OFF:1
T 47900 45900 5 10 0 0 0 0 1
device=none
T 48200 45400 5 10 1 1 0 4 1
value=OFF
}
N 51600 43100 51600 44900 4
N 51600 44900 51200 44900 4
C 53800 47700 1 0 0 header2.sym
{
T 54000 48700 5 10 0 0 0 0 1
device=CONNECTOR_2
T 54200 47800 5 5 0 1 90 0 1
footprint=HE_100mil_2_2
T 53900 48350 5 10 1 1 0 0 1
refdes=J1
}
C 53800 48400 1 0 0 vcc-1.sym
N 54000 48200 54100 48200 4
N 54000 48400 54000 48200 4
C 53900 47600 1 0 0 gnd-1.sym
N 54000 47900 54100 47900 4
C 41500 41500 1 0 0 header6.sym
{
T 41500 42700 5 10 0 1 0 0 1
device=HEADER6
T 42100 41300 5 10 1 1 0 0 1
refdes=J4
T 42500 40000 5 10 0 1 0 0 1
footprint=HE_100mil_6_2
}
C 40200 42900 1 0 0 header2.sym
{
T 40400 43900 5 10 0 0 0 0 1
device=CONNECTOR_2
T 40300 43550 5 10 1 1 0 0 1
refdes=J9
T 40600 43000 5 5 0 1 90 0 1
footprint=HE_100mil_2_2
}
N 40400 43600 40400 43400 4
N 40400 43400 40500 43400 4
C 39900 42900 1 0 0 header2.sym
{
T 40100 43900 5 10 0 0 0 0 1
device=CONNECTOR_2
T 40300 43000 5 5 0 1 90 0 1
footprint=HE_100mil_2_2
T 40000 43550 5 10 1 1 0 0 1
refdes=J8
}
N 40100 43600 40100 43400 4
N 40100 43400 40200 43400 4
C 40200 43600 1 90 0 io-1.sym
{
T 40000 44500 5 10 0 0 90 0 1
net=HVR:1
T 39600 43800 5 10 0 0 90 0 1
device=none
T 40100 44100 5 10 1 1 90 4 1
value=HVR
}
C 45500 44000 1 180 0 io-1.sym
{
T 44600 43800 5 10 0 0 180 0 1
net=ICR:1
T 45300 43400 5 10 0 0 180 0 1
device=none
T 45000 43900 5 10 1 1 180 4 1
value=ICR
}
C 39900 43600 1 90 0 io-1.sym
{
T 39700 44500 5 10 0 0 90 0 1
net=ICR:1
T 39300 43800 5 10 0 0 90 0 1
device=none
T 39800 44100 5 10 1 1 90 4 1
value=ICR
}
C 39600 42900 1 0 0 header2.sym
{
T 39800 43900 5 10 0 0 0 0 1
device=CONNECTOR_2
T 40000 43000 5 5 0 1 90 0 1
footprint=HE_100mil_2_2
T 39700 43550 5 10 1 1 0 0 1
refdes=J7
}
N 39800 43600 39800 43400 4
N 39800 43400 39900 43400 4
N 39900 43100 39800 43100 4
N 39800 43100 39800 42900 4
N 39800 42900 41500 42900 4
{
T 40950 42975 5 5 1 1 0 4 1
netname=reset
}
N 40100 42900 40100 43100 4
N 40100 43100 40200 43100 4
N 40500 43100 40400 43100 4
N 40400 43100 40400 42900 4
C 45500 43800 1 180 0 io-1.sym
{
T 44600 43600 5 10 0 0 180 0 1
net=MOSI:1
T 45300 43200 5 10 0 0 180 0 1
device=none
T 45000 43700 5 10 1 1 180 4 1
value=MOSI
}
C 45500 43600 1 180 0 io-1.sym
{
T 44600 43400 5 10 0 0 180 0 1
net=MISO:1
T 45300 43000 5 10 0 0 180 0 1
device=none
T 45000 43500 5 10 1 1 180 4 1
value=MISO
}
C 45500 43400 1 180 0 io-1.sym
{
T 44600 43200 5 10 0 0 180 0 1
net=SCK:1
T 45300 42800 5 10 0 0 180 0 1
device=none
T 45000 43300 5 10 1 1 180 4 1
value=SCK
}
C 41700 43400 1 180 0 io-1.sym
{
T 40800 43200 5 10 0 0 180 0 1
net=SCK:1
T 41500 42800 5 10 0 0 180 0 1
device=none
T 41200 43300 5 10 1 1 180 4 1
value=SCK
}
C 41700 43800 1 180 0 io-1.sym
{
T 40800 43600 5 10 0 0 180 0 1
net=MISO:1
T 41500 43200 5 10 0 0 180 0 1
device=none
T 41200 43700 5 10 1 1 180 4 1
value=MISO
}
C 42700 43200 1 0 0 io-1.sym
{
T 43600 43400 5 10 0 0 0 0 1
net=MOSI:1
T 42900 43800 5 10 0 0 0 0 1
device=none
T 43200 43300 5 10 1 1 0 4 1
value=MOSI
}
C 48400 43100 1 90 0 capacitor-1.sym
{
T 47700 43300 5 10 0 0 90 0 1
device=CAPACITOR
T 47500 43300 5 10 0 0 90 0 1
symversion=0.2
T 47700 43300 5 10 0 1 90 0 1
footprint=c0603
T 48250 43450 5 10 1 1 180 6 1
refdes=C19
T 48150 43450 5 10 0 1 180 0 1
value=100nF
}
C 48500 44000 1 270 0 capacitor-4.sym
{
T 49600 43800 5 10 0 0 270 0 1
device=POLARIZED_CAPACITOR
T 48600 43800 5 10 1 1 90 4 1
refdes=C18
T 49200 43800 5 10 0 0 270 0 1
symversion=0.2
T 49200 43600 5 10 0 1 90 4 1
footprint=p1206
T 49000 43600 5 10 0 1 90 4 1
value=10µF
}
N 47900 44000 48700 44000 4
{
T 48650 44075 5 5 1 1 0 4 1
netname=aref
}
N 48200 43100 48700 43100 4
C 48600 42800 1 0 0 gnd-1.sym
N 52800 49200 52400 49200 4
C 53000 48200 1 90 0 capacitor-1.sym
{
T 52300 48400 5 10 0 0 90 0 1
device=CAPACITOR
T 52100 48400 5 10 0 0 90 0 1
symversion=0.2
T 52300 48400 5 10 0 1 90 0 1
footprint=c0603
T 52850 48550 5 10 1 1 180 6 1
refdes=C8
T 52650 48550 5 10 0 1 270 0 1
value=100nF
}
C 52700 47900 1 0 0 gnd-1.sym
N 52800 49200 52800 49100 4
C 48500 48200 1 90 0 capacitor-1.sym
{
T 47800 48400 5 10 0 0 90 0 1
device=CAPACITOR
T 47600 48400 5 10 0 0 90 0 1
symversion=0.2
T 47800 48400 5 10 0 1 90 0 1
footprint=c0603
T 48350 48550 5 10 1 1 180 6 1
refdes=C7
T 48150 48550 5 10 0 1 270 0 1
value=100nF
}
C 48200 47900 1 0 0 gnd-1.sym
N 48300 49200 47900 49200 4
N 48300 49100 48300 49200 4
C 43200 42000 1 90 0 gnd-1.sym
C 43200 41600 1 90 0 gnd-1.sym
C 41200 42600 1 270 0 gnd-1.sym
C 43400 43800 1 0 0 header2.sym
{
T 43600 44800 5 10 0 0 0 0 1
device=CONNECTOR_2
T 43800 43900 5 5 0 1 90 0 1
footprint=HE_100mil_2_2
T 43500 44450 5 10 1 1 0 0 1
refdes=J6
}
N 43600 42500 43600 44000 4
N 43600 44000 43700 44000 4
C 43400 44500 1 0 0 vcc-1.sym
N 43600 44300 43700 44300 4
N 43600 44500 43600 44300 4
N 42900 42500 43600 42500 4
{
T 43050 42575 5 5 1 1 0 4 1
netname=vcc4
}
N 42700 43300 42900 43300 4
C 45500 44400 1 180 0 io-1.sym
{
T 44600 44200 5 10 0 0 180 0 1
net=SCI:1
T 45300 43800 5 10 0 0 180 0 1
device=none
T 45000 44300 5 10 1 1 180 4 1
value=SCI
}
C 41700 42200 1 180 0 io-1.sym
{
T 40800 42000 5 10 0 0 180 0 1
net=SCI:1
T 41500 41600 5 10 0 0 180 0 1
device=none
T 41200 42100 5 10 1 1 180 4 1
value=SCI
}
C 47000 42200 1 0 0 inductor-1.sym
{
T 47200 42700 5 10 0 0 0 0 1
device=INDUCTOR
T 47000 42500 5 10 1 1 0 0 1
refdes=L1
T 47200 42900 5 10 0 0 0 0 1
symversion=0.2
T 47000 42000 5 8 1 1 0 0 1
footprint=c1210.fp
T 47300 42500 5 10 1 1 0 0 1
value=10µH
T 47000 42250 5 5 1 1 0 2 1
value=LQH32CN100K33L
}
C 48100 41400 1 90 0 capacitor-1.sym
{
T 47400 41600 5 10 0 0 90 0 1
device=CAPACITOR
T 47200 41600 5 10 0 0 90 0 1
symversion=0.2
T 47400 41600 5 10 0 1 90 0 1
footprint=c0603
T 47950 41750 5 10 1 1 180 6 1
refdes=C21
T 47850 41750 5 10 0 1 180 0 1
value=100nF
}
C 47800 41100 1 0 0 gnd-1.sym
C 47000 42100 1 90 0 vcc-1.sym
N 47900 43700 47900 42300 4
C 43300 46500 1 0 0 resistor-2.sym
{
T 43700 46850 5 10 0 0 0 0 1
device=RESISTOR
T 43750 46600 5 10 1 1 0 4 1
refdes=R15
T 43750 46400 5 10 0 1 0 4 1
footprint=c0603
T 43750 46850 5 10 1 1 0 4 1
value=1kΩ
T 43500 47200 5 10 0 0 0 0 1
symversion=0.1
}
C 42300 45800 1 0 0 led-3.sym
{
T 43250 46450 5 10 0 0 0 0 1
device=LED
T 42500 45700 5 10 0 1 0 0 1
footprint=c0603
T 42200 45700 5 10 0 1 0 0 1
value=LED orange
T 42800 46000 5 8 1 1 0 4 1
refdes=D6
}
C 42000 46100 1 270 0 gnd-1.sym
C 43300 45900 1 0 0 resistor-2.sym
{
T 43700 46250 5 10 0 0 0 0 1
device=RESISTOR
T 43750 45800 5 10 0 1 0 4 1
footprint=c0603
T 43500 46600 5 10 0 0 0 0 1
symversion=0.1
T 43750 46000 5 10 1 1 0 4 1
refdes=R16
T 43750 46250 5 10 1 1 0 4 1
value=1kΩ
}
C 42300 45200 1 0 0 led-3.sym
{
T 43250 45850 5 10 0 0 0 0 1
device=LED
T 42500 45100 5 10 0 1 0 0 1
footprint=c0603
T 42200 45100 5 10 0 1 0 0 1
value=LED green
T 42800 45400 5 8 1 1 0 4 1
refdes=D7
}
C 42000 45500 1 270 0 gnd-1.sym
C 43300 45300 1 0 0 resistor-2.sym
{
T 43700 45650 5 10 0 0 0 0 1
device=RESISTOR
T 43750 45200 5 10 0 1 0 4 1
footprint=c0603
T 43500 46000 5 10 0 0 0 0 1
symversion=0.1
T 43750 45400 5 10 1 1 0 4 1
refdes=R18
T 43750 45650 5 10 1 1 0 4 1
value=1kΩ
}
N 44300 45800 45300 45800 4
{
T 44450 45875 5 5 1 1 0 4 1
netname=PD6
}
N 44300 45400 44300 45800 4
N 44300 45400 44200 45400 4
N 44200 46000 45300 46000 4
{
T 44450 46075 5 5 1 1 0 4 1
netname=PD5
}
N 44300 46200 45300 46200 4
{
T 44450 46275 5 5 1 1 0 4 1
netname=PD4
}
N 44300 46200 44300 46600 4
N 44300 46600 44200 46600 4
C 48200 42300 1 270 0 capacitor-4.sym
{
T 49300 42100 5 10 0 0 270 0 1
device=POLARIZED_CAPACITOR
T 48300 42100 5 10 1 1 90 4 1
refdes=C20
T 48900 42100 5 10 0 0 270 0 1
symversion=0.2
T 48900 41900 5 10 0 1 90 4 1
footprint=p1206
T 48700 41900 5 10 0 1 90 4 1
value=10µF
}
C 48300 41100 1 0 0 gnd-1.sym
N 48400 42300 48400 42400 4
N 47900 42400 48400 42400 4
C 49600 45000 1 90 0 capacitor-1.sym
{
T 48900 45200 5 10 0 0 90 0 1
device=CAPACITOR
T 48700 45200 5 10 0 0 90 0 1
symversion=0.2
T 48900 45200 5 10 0 1 90 0 1
footprint=c0603
T 49450 45350 5 10 1 1 180 6 1
refdes=C17
T 49250 45350 5 10 0 1 270 0 1
value=100nF
}
C 49300 44700 1 0 0 gnd-1.sym
N 49000 45800 49000 45900 4
N 49000 45900 49400 45900 4
N 41700 43700 41500 43700 4
N 41700 43300 41500 43300 4
N 41700 42100 41500 42100 4
N 47700 44800 47900 44800 4
N 47700 45000 47900 45000 4
N 47700 45200 47900 45200 4
N 47700 46400 47900 46400 4
N 47700 46600 47900 46600 4
N 45500 47000 45300 47000 4
N 45500 46800 45300 46800 4
N 45300 46600 45500 46600 4
N 45300 46400 45500 46400 4
N 45500 45600 45300 45600 4
N 45500 44100 45300 44100 4
N 45500 43900 45300 43900 4
N 45500 43700 45300 43700 4
N 45500 43500 45300 43500 4
N 45500 43300 45300 43300 4
N 45500 44300 45300 44300 4
C 55300 47600 1 0 0 gnd-1.sym
N 55400 47900 55400 47700 4
C 55200 48400 1 0 0 vcc-1.sym
N 55400 48400 55400 48600 4
C 54600 47700 1 90 0 capacitor-1.sym
{
T 53900 47900 5 10 0 0 90 0 1
device=CAPACITOR
T 53700 47900 5 10 0 0 90 0 1
symversion=0.2
T 53900 47900 5 10 0 1 90 0 1
footprint=c0603
T 54350 48050 5 10 0 1 180 0 1
value=100nF
T 54450 48050 5 10 1 1 180 6 1
refdes=C10
}
C 54200 48400 1 0 0 vcc-1.sym
C 54300 47600 1 0 0 gnd-1.sym
N 54400 48400 54400 48600 4
N 54400 47900 54400 47700 4
C 47700 45900 1 0 0 io-1.sym
{
T 48600 46100 5 10 0 0 0 0 1
net=AIN:1
T 47900 46500 5 10 0 0 0 0 1
device=none
T 48200 46000 5 10 1 1 0 4 1
value=AIN
}
N 47700 46000 47900 46000 4
C 41400 47500 1 0 0 io-1.sym
{
T 42300 47700 5 10 0 0 0 0 1
net=AIN:1
T 41600 48100 5 10 0 0 0 0 1
device=none
T 41900 47600 5 10 1 1 0 4 1
value=AIN
}
C 40800 46400 1 0 0 gnd-1.sym
N 40900 46700 40900 46600 4
C 41000 47600 1 90 0 resistor-2.sym
{
T 40650 48000 5 10 0 0 90 0 1
device=RESISTOR
T 41100 48050 5 10 0 1 90 4 1
footprint=c0603
T 40300 47800 5 10 0 0 90 0 1
symversion=0.1
T 40900 48050 5 10 1 1 90 4 1
refdes=R13
T 40650 48050 5 10 1 1 90 4 1
value=10kΩ
}
C 41000 46600 1 90 0 resistor-2.sym
{
T 40650 47000 5 10 0 0 90 0 1
device=RESISTOR
T 41100 47050 5 10 1 1 90 4 1
footprint=c0805
T 40300 46800 5 10 0 0 90 0 1
symversion=0.1
T 40900 47050 5 10 1 1 90 4 1
refdes=R14
T 40650 47050 5 10 1 1 90 4 1
value=10kΩ NTC
}
C 41600 46700 1 90 0 capacitor-1.sym
{
T 40900 46900 5 10 0 0 90 0 1
device=CAPACITOR
T 40700 46900 5 10 0 0 90 0 1
symversion=0.2
T 40900 46900 5 10 0 1 90 0 1
footprint=c0603
T 41250 47050 5 10 0 1 270 0 1
value=100nF
T 41450 47050 5 10 1 1 180 6 1
refdes=C12
}
C 41300 46400 1 0 0 gnd-1.sym
N 40900 47500 40900 47600 4
N 40900 47600 41400 47600 4
C 40000 47000 1 0 0 header2.sym
{
T 40200 48000 5 10 0 0 0 0 1
device=CONNECTOR_2
T 40100 47650 5 10 1 1 0 0 1
refdes=J2
T 40400 47100 5 5 0 1 90 0 1
footprint=HE_100mil_2_2
}
N 40900 47500 40300 47500 4
C 40100 46900 1 0 0 gnd-1.sym
N 40200 47200 40300 47200 4
N 41700 49700 41600 49700 4
N 46100 51300 46200 51300 4
{
T 46150 51375 5 5 1 1 0 4 1
netname=pwmv1
}
N 49700 49200 50200 49200 4
{
T 49850 49275 5 5 1 1 0 4 1
netname=q1g
}
N 43200 46600 43300 46600 4
{
T 43250 46675 5 5 1 1 0 4 1
netname=d5a
}
N 43200 46000 43300 46000 4
{
T 43250 46075 5 5 1 1 0 4 1
netname=d6a
}
N 43200 45400 43300 45400 4
{
T 43250 45475 5 5 1 1 0 4 1
netname=d7a
}
C 48400 42300 1 0 0 io-1.sym
{
T 49300 42500 5 10 0 0 0 0 1
net=AVCC:1
T 48600 42900 5 10 0 0 0 0 1
device=none
T 48900 42400 5 10 1 1 0 4 1
value=AVCC
}
C 41000 48500 1 90 0 io-1.sym
{
T 40800 49400 5 10 0 0 90 0 1
net=AVCC:1
T 40400 48700 5 10 0 0 90 0 1
device=none
T 40900 49000 5 10 1 1 90 4 1
value=AVCC
}
C 49700 47700 1 90 0 resistor-2.sym
{
T 49350 48100 5 10 0 0 90 0 1
device=RESISTOR
T 49600 48150 5 10 1 1 90 4 1
refdes=R10
T 49800 48150 5 10 0 1 90 4 1
footprint=c0603
T 49350 48150 5 10 1 1 90 4 1
value=100kΩ
T 49000 47900 5 10 0 0 90 0 1
symversion=0.1
}
C 51200 47700 1 90 0 resistor-2.sym
{
T 50850 48100 5 10 0 0 90 0 1
device=RESISTOR
T 51100 48150 5 10 1 1 90 4 1
refdes=R20
T 51300 48150 5 10 0 1 90 4 1
footprint=c0603
T 50850 48150 5 10 1 1 90 4 1
value=100kΩ
T 50500 47900 5 10 0 0 90 0 1
symversion=0.1
}
N 51100 48600 51100 48700 4
{
T 51025 48650 5 5 1 1 90 4 1
netname=q2b
}
C 45300 42700 1 0 0 ATmega8-TQFP.sym
{
T 45400 47500 5 10 0 0 0 0 1
footprint=TQFP32_7
T 47600 47300 5 10 1 1 0 6 1
refdes=U1
T 45400 48100 5 10 0 0 0 0 1
device=ATmega8
T 45600 42350 5 10 1 1 0 0 1
net=Vcc:4,6
T 45600 42550 5 10 1 1 0 0 1
net=GND:3,5,21
}
C 54300 49300 1 0 0 header2.sym
{
T 54500 50300 5 10 0 0 0 0 1
device=CONNECTOR_2
T 54700 49400 5 5 0 1 90 0 1
footprint=HE_100mil_2_2
T 54000 49650 5 10 1 1 0 0 1
refdes=J10
}
N 54500 49500 54600 49500 4
C 54800 49800 1 90 0 io-1.sym
{
T 54600 50700 5 10 0 0 90 0 1
net=SDA:1
T 54200 50000 5 10 0 0 90 0 1
device=none
T 54700 50300 5 10 1 1 90 4 1
value=SDA
}
C 54600 49800 1 90 0 io-1.sym
{
T 54400 50700 5 10 0 0 90 0 1
net=SCL:1
T 54000 50000 5 10 0 0 90 0 1
device=none
T 54500 50300 5 10 1 1 90 4 1
value=SCL
}
N 54600 49800 54500 49800 4
C 54600 49200 1 0 0 gnd-1.sym
N 54700 49500 54800 49500 4
N 54800 49800 54700 49800 4
C 54500 49300 1 0 0 header2.sym
{
T 54700 50300 5 10 0 0 0 0 1
device=CONNECTOR_2
T 54900 49400 5 5 0 1 90 0 1
footprint=HE_100mil_2_2
T 54000 49850 5 10 1 1 0 0 1
refdes=J11
}
N 47700 45600 47900 45600 4
N 47700 45400 47900 45400 4
C 45500 46500 1 180 0 io-1.sym
{
T 44600 46300 5 10 0 0 180 0 1
net=RTS:1
T 45300 45900 5 10 0 0 180 0 1
device=none
T 45000 46400 5 10 1 1 180 4 1
value=RTS
}
C 54900 43400 1 0 0 io-1.sym
{
T 55800 43600 5 10 0 0 0 0 1
net=RTS:1
T 55100 44000 5 10 0 0 0 0 1
device=none
T 55400 43500 5 10 1 1 0 4 1
value=RTS
}
N 51200 44600 51500 44600 4
N 51500 43900 51500 44600 4
N 51500 43900 52900 43900 4
{
T 52400 43950 5 7 1 1 0 0 1
netname=CTSD
}
C 54900 43800 1 0 0 io-1.sym
{
T 55800 44000 5 10 0 0 0 0 1
net=CTS:1
T 55100 44400 5 10 0 0 0 0 1
device=none
T 55400 43900 5 10 1 1 0 4 1
value=CTS
}
N 51200 45200 51700 45200 4
N 51700 43500 51700 45200 4
N 51700 43500 52900 43500 4
{
T 52400 43550 5 7 1 1 0 0 1
netname=RTSD
}
C 45500 46700 1 180 0 io-1.sym
{
T 44600 46500 5 10 0 0 180 0 1
net=CTS:1
T 45300 46100 5 10 0 0 180 0 1
device=none
T 45000 46600 5 10 1 1 180 4 1
value=CTS
}
C 53900 41600 1 0 0 terminal-1.sym
{
T 54210 42350 5 10 0 0 0 0 1
device=terminal
T 54410 41900 5 10 1 1 0 0 1
footprint=gseboard
T 54350 41900 5 10 1 1 0 6 1
refdes=BOARD
}
C 55100 41600 1 90 0 gnd-1.sym
N 49700 50100 49700 50200 4
C 54700 49500 1 180 0 vcc-1.sym
C 41700 41800 1 180 0 io-1.sym
{
T 40800 41600 5 10 0 0 180 0 1
net=PWM:1
T 41500 41200 5 10 0 0 180 0 1
device=none
T 41200 41700 5 10 1 1 180 4 1
value=PWM
}
N 41700 41700 41500 41700 4
