v 20220529 2
C 39400 40800 0 0 0 title-B.sym
{
T 49400 41800 19 25 1 1 0 0 1
title=updi232
T 53500 41200 19 10 1 1 0 0 1
version=v01
T 53500 40900 19 10 1 1 0 0 1
author=SiB
T 49400 41500 19 10 1 1 0 0 1
git=https://codeberg.org/SiB64/atfuses.git
T 49400 41200 19 10 1 1 0 0 1
file=updi232.sch
}
C 40000 50900 1 180 1 DB9-1.sym
{
T 41000 48000 5 10 0 0 180 6 1
device=DB9
T 40200 47800 5 10 1 1 180 6 1
refdes=CONN1
T 40200 47400 5 10 1 1 0 0 1
footprint=SUBD9_F
T 39900 48300 5 10 1 1 90 0 1
value=D9 fem 90° backset 8.1mm
T 40200 47200 5 10 1 1 0 0 1
net=GND:10,11
}
C 45300 47300 1 0 0 max232.sym
{
T 45600 50950 5 10 0 0 0 0 1
device=MAX232
T 46300 50100 5 10 1 1 0 4 1
refdes=U1
T 46900 49250 5 7 1 1 0 6 1
footprint=SOIC_150_16
T 45700 49400 5 10 1 1 0 0 1
value=MAX3232EIDR
T 45650 47350 5 7 1 1 0 0 1
net=Vcc:16
T 46950 47350 5 7 1 1 0 6 1
net=GND:15
}
C 44300 50200 1 0 0 capacitor-1.sym
{
T 44500 50900 5 10 0 0 0 0 1
device=CAPACITOR
T 44500 51100 5 10 0 0 0 0 1
symversion=0.1
T 44800 50200 5 10 0 1 0 0 1
footprint=C0603
T 44350 50550 5 10 1 1 0 1 1
refdes=C1
T 44800 50300 5 10 0 1 0 1 1
value=100nF
}
N 45300 50000 44300 50000 4
{
T 45300 50050 5 8 1 1 0 6 1
netname=MC1-
}
N 44300 50000 44300 50400 4
C 44300 49400 1 0 0 capacitor-1.sym
{
T 44500 50100 5 10 0 0 0 0 1
device=CAPACITOR
T 44500 50300 5 10 0 0 0 0 1
symversion=0.1
T 44800 49400 5 10 0 1 0 0 1
footprint=C0603
T 44350 49750 5 10 1 1 0 1 1
refdes=C2
T 44800 49500 5 10 0 1 0 1 1
value=100nF
}
N 44300 49200 45300 49200 4
{
T 45300 49250 5 8 1 1 0 6 1
netname=MC2-
}
N 44300 49200 44300 49600 4
N 45200 50400 45300 50400 4
{
T 45300 50450 5 8 1 1 0 6 1
netname=MC1+
}
N 45200 49600 45300 49600 4
{
T 45300 49650 5 8 1 1 0 6 1
netname=MC2+
}
C 47400 50200 1 0 0 capacitor-1.sym
{
T 47600 50900 5 10 0 0 0 0 1
device=CAPACITOR
T 47600 51100 5 10 0 0 0 0 1
symversion=0.1
T 47900 50200 5 10 0 1 0 0 1
footprint=C0603
T 47950 50250 5 10 1 1 0 1 1
refdes=C3
T 47900 50300 5 10 0 1 0 1 1
value=100nF
}
C 47400 49400 1 0 0 capacitor-1.sym
{
T 47600 50100 5 10 0 0 0 0 1
device=CAPACITOR
T 47600 50300 5 10 0 0 0 0 1
symversion=0.1
T 47900 49400 5 10 0 1 0 0 1
footprint=C0603
T 47950 49450 5 10 1 1 0 1 1
refdes=C4
T 47900 49500 5 10 0 1 0 1 1
value=100nF
}
N 48600 49600 48600 50900 4
N 47400 50400 47300 50400 4
{
T 47550 50200 5 8 1 1 0 6 1
netname=MV+
}
N 47300 49600 47400 49600 4
{
T 47550 49400 5 8 1 1 0 6 1
netname=MV-
}
N 42600 47600 45300 47600 4
{
T 44800 47650 5 7 1 1 0 0 1
netname=TxDD
}
N 41200 48800 45300 48800 4
{
T 44800 48850 5 7 1 1 0 0 1
netname=RxDD
T 41300 48850 5 5 1 1 0 0 1
netname=RxDD
}
C 48900 49500 1 90 0 gnd-1.sym
C 41500 50500 1 90 0 gnd-1.sym
C 47300 48700 1 0 0 io-1.sym
{
T 48200 48900 5 10 0 0 0 0 1
net=RxD:1
T 47500 49300 5 10 0 0 0 0 1
device=none
T 47800 48800 5 10 1 1 0 4 1
value=RxD
}
C 47300 47500 1 0 0 io-1.sym
{
T 48200 47700 5 10 0 0 0 0 1
net=TxD:1
T 47500 48100 5 10 0 0 0 0 1
device=none
T 47800 47600 5 10 1 1 0 4 1
value=TxD
}
C 47300 48300 1 0 0 io-1.sym
{
T 48200 48500 5 10 0 0 0 0 1
net=RTS:1
T 47500 48900 5 10 0 0 0 0 1
device=none
T 47800 48400 5 10 1 1 0 4 1
value=RTS
}
N 41200 49700 42300 49700 4
{
T 41300 49750 5 5 1 1 0 0 1
netname=CTSD
}
N 42300 48000 42300 49700 4
N 42300 48000 45300 48000 4
{
T 44800 48050 5 7 1 1 0 0 1
netname=CTSD
}
C 47300 47900 1 0 0 io-1.sym
{
T 48200 48100 5 10 0 0 0 0 1
net=CTS:1
T 47500 48500 5 10 0 0 0 0 1
device=none
T 47800 48000 5 10 1 1 0 4 1
value=CTS
}
N 41200 49100 42000 49100 4
{
T 41300 49150 5 5 1 1 0 0 1
netname=RTSD
}
N 42000 48400 42000 49100 4
N 42000 48400 45300 48400 4
{
T 44800 48450 5 7 1 1 0 0 1
netname=RTSD
}
C 53900 41600 1 0 0 terminal-1.sym
{
T 54210 42350 5 10 0 0 0 0 1
device=terminal
T 54410 41900 5 10 1 1 0 0 1
footprint=gseboard
T 54350 41900 5 10 1 1 0 6 1
refdes=BOARD
}
C 55100 41600 1 90 0 gnd-1.sym
C 50000 49000 1 0 0 diode-1.sym
{
T 50400 49600 5 10 0 0 0 0 1
device=DIODE
T 50100 49100 5 10 0 1 0 0 1
footprint=SOD523
T 50100 48900 5 10 0 1 0 0 1
value=1N4148
T 50700 49300 5 10 1 1 0 0 1
refdes=D1
}
C 49900 50200 1 90 0 vcc-1.sym
C 52500 49600 1 0 0 diode-1.sym
{
T 52900 50200 5 10 0 0 0 0 1
device=DIODE
T 52600 49700 5 10 0 1 0 0 1
footprint=SOD523
T 52600 49500 5 10 0 1 0 0 1
value=1N4148
T 53200 49900 5 10 1 1 0 0 1
refdes=D5
}
C 52300 48800 1 90 0 resistor-2.sym
{
T 52200 49250 5 10 1 1 90 4 1
refdes=R4
T 51950 49250 5 10 1 1 90 4 1
value=10kΩ
T 51950 49200 5 10 0 0 90 0 1
device=RESISTOR
T 52400 49250 5 10 0 1 90 4 1
footprint=C0603
T 51600 49000 5 10 0 0 90 0 1
symversion=0.1
}
C 52500 50200 1 0 0 diode-1.sym
{
T 52900 50800 5 10 0 0 0 0 1
device=DIODE
T 52600 50300 5 10 0 1 0 0 1
footprint=SOD523
T 52600 50100 5 10 0 1 0 0 1
value=1N4148
T 53200 50500 5 10 1 1 0 0 1
refdes=D3
}
C 51500 50300 1 0 0 resistor-2.sym
{
T 51900 50650 5 10 0 0 0 0 1
device=RESISTOR
T 51950 50200 5 10 0 1 0 4 1
footprint=C0603
T 51700 51000 5 10 0 0 0 0 1
symversion=0.1
T 51950 50400 5 10 1 1 0 4 1
refdes=R3
T 51950 50650 5 10 1 1 0 4 1
value=10kΩ
}
N 49900 50400 51500 50400 4
N 52400 50400 52500 50400 4
{
T 52450 50450 5 5 1 1 0 3 1
netname=D3a
}
N 49700 49800 50000 49800 4
{
T 49600 49800 5 8 1 1 0 7 1
netname=MC1+
}
C 50900 50000 1 180 0 capacitor-1.sym
{
T 50700 49300 5 10 0 0 180 0 1
device=CAPACITOR
T 50700 49100 5 10 0 0 180 0 1
symversion=0.2
T 50700 49300 5 10 0 1 180 0 1
footprint=C0603
T 50350 49650 5 10 0 1 0 6 1
value=100nF
T 50350 49850 5 10 1 1 0 6 1
refdes=C5
}
C 50900 48800 1 180 0 capacitor-1.sym
{
T 50700 48100 5 10 0 0 180 0 1
device=CAPACITOR
T 50700 47900 5 10 0 0 180 0 1
symversion=0.2
T 50700 48100 5 10 0 1 180 0 1
footprint=C0603
T 50350 48450 5 10 0 1 0 6 1
value=100nF
T 50350 48650 5 10 1 1 0 6 1
refdes=C6
}
N 49700 49200 50000 49200 4
{
T 49600 49200 5 8 1 1 0 7 1
netname=MC2+
}
N 49700 48600 50000 48600 4
{
T 49600 48600 5 8 1 1 0 7 1
netname=MC2-
}
C 51000 48400 1 0 0 diode-1.sym
{
T 51400 49000 5 10 0 0 0 0 1
device=DIODE
T 51100 48500 5 10 0 1 0 0 1
footprint=SOD523
T 51100 48300 5 10 0 1 0 0 1
value=1N4148
T 51700 48700 5 10 1 1 0 0 1
refdes=D4
}
N 50900 49200 50900 48600 4
N 50900 48600 51000 48600 4
{
T 51050 48650 5 5 1 1 0 3 1
netname=D4a
}
N 51900 48600 52500 48600 4
{
T 52350 48650 5 5 1 1 0 3 1
netname=D4k
}
N 50900 49800 52500 49800 4
{
T 52450 49850 5 5 1 1 0 3 1
netname=D5a
}
N 52200 48600 52200 48800 4
N 52200 49800 52200 49700 4
C 54000 49600 1 90 1 capacitor-4.sym
{
T 52900 49400 5 10 0 0 270 2 1
device=POLARIZED_CAPACITOR
T 54000 48900 5 10 1 1 180 4 1
refdes=C8
T 53300 49400 5 10 0 0 270 2 1
symversion=0.2
T 53300 49200 5 10 0 1 90 4 1
footprint=P1206
T 53500 49200 5 10 0 1 90 4 1
value=10µF
}
C 54400 48300 1 0 0 gnd-1.sym
C 53400 48800 1 180 0 capacitor-1.sym
{
T 53200 48100 5 10 0 0 180 0 1
device=CAPACITOR
T 53200 47900 5 10 0 0 180 0 1
symversion=0.2
T 53200 48100 5 10 0 1 180 0 1
footprint=C0603
T 52850 48450 5 10 0 1 0 6 1
value=100nF
T 52850 48650 5 10 1 1 0 6 1
refdes=C7
}
N 53400 48600 54500 48600 4
N 53800 48600 53800 48700 4
N 53400 49800 54900 49800 4
N 53800 49800 53800 49600 4
N 54500 48700 54500 48600 4
N 54500 49600 54500 49800 4
C 47500 50800 1 0 0 resistor-2.sym
{
T 47950 50900 5 10 1 1 0 4 1
refdes=R1
T 47950 51150 5 10 1 1 0 4 1
value=100kΩ
T 47900 51150 5 10 0 0 0 0 1
device=RESISTOR
T 47950 50700 5 10 0 1 0 4 1
footprint=C0603
T 47700 51500 5 10 0 0 0 0 1
symversion=0.1
}
N 48600 49600 48300 49600 4
N 48600 50400 48300 50400 4
N 48600 50900 48400 50900 4
N 47400 50400 47400 50900 4
N 47400 50900 47500 50900 4
N 53800 49800 53800 51000 4
N 53800 50400 53400 50400 4
C 52500 50800 1 0 0 diode-1.sym
{
T 52900 51400 5 10 0 0 0 0 1
device=DIODE
T 52600 50900 5 10 0 1 0 0 1
footprint=SOD523
T 52600 50700 5 10 0 1 0 0 1
value=1N4148
T 53200 51100 5 10 1 1 0 0 1
refdes=D2
}
C 51500 50900 1 0 0 resistor-2.sym
{
T 51900 51250 5 10 0 0 0 0 1
device=RESISTOR
T 51950 50800 5 10 0 1 0 4 1
footprint=C0603
T 51700 51600 5 10 0 0 0 0 1
symversion=0.1
T 51950 51000 5 10 1 1 0 4 1
refdes=R2
T 51950 51250 5 10 1 1 0 4 1
value=10kΩ
}
N 49700 51000 51500 51000 4
{
T 49600 50950 5 8 1 1 0 6 1
netname=MV+
}
N 52400 51000 52500 51000 4
{
T 52450 51050 5 5 1 1 0 3 1
netname=D2a
}
N 53800 51000 53400 51000 4
C 49900 47200 1 90 0 vcc-1.sym
C 51000 47200 1 0 0 diode-1.sym
{
T 51400 47800 5 10 0 0 0 0 1
device=DIODE
T 51100 47300 5 10 0 1 0 0 1
footprint=SOD523
T 51100 47100 5 10 0 1 0 0 1
value=1N4148
T 51700 47500 5 10 1 1 0 0 1
refdes=D7
}
C 50000 47300 1 0 0 resistor-2.sym
{
T 50400 47650 5 10 0 0 0 0 1
device=RESISTOR
T 50450 47200 5 10 0 1 0 4 1
footprint=C0603
T 50200 48000 5 10 0 0 0 0 1
symversion=0.1
T 50450 47400 5 10 1 1 0 4 1
refdes=R6
T 50450 47650 5 10 1 1 0 4 1
value=10kΩ
}
N 49900 47400 50000 47400 4
N 50900 47400 51000 47400 4
{
T 51050 47450 5 5 1 1 0 3 1
netname=D7a
}
N 52200 47400 51900 47400 4
C 51000 47800 1 0 0 diode-1.sym
{
T 51400 48400 5 10 0 0 0 0 1
device=DIODE
T 51100 47900 5 10 0 1 0 0 1
footprint=SOD523
T 51100 47700 5 10 0 1 0 0 1
value=1N4148
T 51700 48100 5 10 1 1 0 0 1
refdes=D6
}
C 50000 47900 1 0 0 resistor-2.sym
{
T 50400 48250 5 10 0 0 0 0 1
device=RESISTOR
T 50450 47800 5 10 0 1 0 4 1
footprint=C0603
T 50200 48600 5 10 0 0 0 0 1
symversion=0.1
T 50450 48000 5 10 1 1 0 4 1
refdes=R5
T 50450 48250 5 10 1 1 0 4 1
value=10kΩ
}
N 49700 48000 50000 48000 4
{
T 49600 48000 5 8 1 1 0 7 1
netname=MV+
}
N 50900 48000 51000 48000 4
{
T 51050 48050 5 5 1 1 0 3 1
netname=D6a
}
N 52200 48000 51900 48000 4
N 52200 48600 52200 47400 4
C 52700 45900 1 0 0 header6.sym
{
T 52700 47100 5 10 0 1 0 0 1
device=HEADER6
T 53300 47200 5 10 1 1 0 0 1
refdes=J1
T 53700 44400 5 10 0 1 0 0 1
footprint=HE_100mil_6_2
}
C 40000 45100 1 0 0 gnd-1.sym
T 53050 46500 5 5 1 1 0 1 1
netname=SCK
T 53050 46100 5 5 1 1 0 1 1
netname=Reset
T 53750 46500 5 5 1 1 180 1 1
netname=MOSI
T 53750 46900 5 5 1 1 180 1 1
netname=Vcc
T 53750 46100 5 5 1 1 180 1 1
netname=GND
T 53050 46900 5 5 1 1 0 1 1
netname=MISO
C 40500 46300 1 0 0 vcc-1.sym
C 52600 47000 1 180 0 io-1.sym
{
T 51700 46800 5 10 0 0 180 0 1
net=UPDI:1
T 52400 46400 5 10 0 0 180 0 1
device=none
T 52100 46900 5 10 1 1 180 4 1
value=UPDI
}
N 52600 46900 52700 46900 4
C 44600 45200 1 270 1 pmos-ub.sym
{
T 46000 45800 5 10 0 0 270 6 1
device=PMOS_TRANSISTOR
T 44900 45000 5 10 1 1 180 6 1
refdes=Q1
T 44900 45200 5 10 1 1 180 6 1
footprint=SOT23_3
T 44900 45400 5 10 1 1 180 6 1
value=BSS84
}
C 44400 44700 1 90 0 resistor-2.sym
{
T 44050 45100 5 10 0 0 90 0 1
device=RESISTOR
T 44500 45150 5 10 0 1 90 4 1
footprint=C0603
T 43700 44900 5 10 0 0 90 0 1
symversion=0.1
T 44300 45150 5 10 1 1 90 4 1
refdes=R13
T 44050 45150 5 10 1 1 90 4 1
value=1MΩ
}
N 44800 45200 44800 44700 4
N 44300 44700 44800 44700 4
N 44300 45600 44300 45700 4
N 44600 45700 43900 45700 4
N 46400 45700 48200 45700 4
C 48200 45600 1 0 0 io-1.sym
{
T 49100 45800 5 10 0 0 0 0 1
net=UPDI:1
T 48400 46200 5 10 0 0 0 0 1
device=none
T 48700 45700 5 10 1 1 0 4 1
value=UPDI
}
C 55200 46800 1 0 0 io-1.sym
{
T 56100 47000 5 10 0 0 0 0 1
net=CTS:1
T 55400 47400 5 10 0 0 0 0 1
device=none
T 55700 46900 5 10 1 1 0 4 1
value=CTS
}
C 45500 45600 1 0 0 resistor-2.sym
{
T 45900 45950 5 10 0 0 0 0 1
device=RESISTOR
T 45950 45500 5 10 0 1 0 4 1
footprint=C0603
T 45700 46300 5 10 0 0 0 0 1
symversion=0.1
T 45950 45700 5 10 1 1 0 4 1
refdes=R14
T 45950 45950 5 10 1 1 0 4 1
value=10kΩ
}
N 45500 45700 45400 45700 4
C 45500 42700 1 0 0 npn-sot23.sym
{
T 46400 43200 5 10 0 0 0 0 1
device=NPN_TRANSISTOR
T 46200 43300 5 10 1 1 0 0 1
refdes=Q3
T 46200 43100 5 10 1 1 0 0 1
footprint=SC70_6
T 46200 42900 5 10 1 1 0 0 1
value=BC847S
T 45500 42700 5 10 0 1 0 0 1
numslots=3
T 45500 42700 5 10 0 1 0 0 1
slotdef=1:3,1,2
T 45500 42700 5 10 0 1 0 0 1
slotdef=2:6,2,1
T 45500 42700 5 10 0 1 0 0 1
slotdef=3:3,5,4
T 46000 43200 5 10 1 1 0 0 1
slot=2
}
C 46000 42400 1 0 0 gnd-1.sym
N 47000 44200 47000 45700 4
C 46400 43200 1 0 0 npn-sot23.sym
{
T 47300 43700 5 10 0 0 0 0 1
device=NPN_TRANSISTOR
T 47100 43800 5 10 1 1 0 0 1
refdes=Q3
T 47100 43600 5 10 1 1 0 0 1
footprint=SC70_6
T 47100 43400 5 10 1 1 0 0 1
value=BC847S
T 46400 43200 5 10 0 1 0 0 1
numslots=3
T 46400 43200 5 10 0 1 0 0 1
slotdef=1:3,1,2
T 46400 43200 5 10 0 1 0 0 1
slotdef=2:6,2,1
T 46400 43200 5 10 0 1 0 0 1
slotdef=3:3,5,4
T 46900 43700 5 10 1 1 0 0 1
slot=3
}
C 46900 42400 1 0 0 gnd-1.sym
C 45900 44600 1 0 0 vcc-1.sym
C 46200 43800 1 90 0 resistor-2.sym
{
T 45850 44200 5 10 0 0 90 0 1
device=RESISTOR
T 46300 44250 5 10 0 1 90 4 1
footprint=C0603
T 45500 44000 5 10 0 0 90 0 1
symversion=0.1
T 46100 44250 5 10 1 1 90 4 1
refdes=R15
T 45850 44250 5 10 1 1 90 4 1
value=100kΩ
}
N 46100 43700 46100 43800 4
N 46400 43700 46100 43700 4
N 47000 43200 47000 42700 4
C 41500 42000 1 0 0 resistor-2.sym
{
T 41900 42350 5 10 0 0 0 0 1
device=RESISTOR
T 41950 41900 5 10 0 1 0 4 1
footprint=C0603
T 41700 42700 5 10 0 0 0 0 1
symversion=0.1
T 41950 42100 5 10 1 1 0 4 1
refdes=R11
T 41950 42350 5 10 1 1 0 4 1
value=10kΩ
}
N 42400 42100 45500 42100 4
N 45500 42100 45500 43200 4
C 49500 44100 1 0 0 io-1.sym
{
T 50400 44300 5 10 0 0 0 0 1
net=RxD:1
T 49700 44700 5 10 0 0 0 0 1
device=none
T 50000 44200 5 10 1 1 0 4 1
value=RxD
}
C 48300 42400 1 0 0 gnd-1.sym
C 48700 43200 1 0 0 npn-sot23.sym
{
T 49600 43700 5 10 0 0 0 0 1
device=NPN_TRANSISTOR
T 48700 43200 5 10 0 1 0 0 1
numslots=3
T 48700 43200 5 10 0 1 0 0 1
slotdef=1:3,1,2
T 48700 43200 5 10 0 1 0 0 1
slotdef=2:6,2,1
T 48700 43200 5 10 0 1 0 0 1
slotdef=3:3,5,4
T 49400 43800 5 10 1 1 0 0 1
refdes=Q4
T 49400 43600 5 10 1 1 0 0 1
footprint=SC70_6
T 49400 43400 5 10 1 1 0 0 1
value=BC847S
T 49200 43700 5 10 1 1 0 0 1
slot=3
}
C 49200 42400 1 0 0 gnd-1.sym
C 48200 44600 1 0 0 vcc-1.sym
C 48500 43800 1 90 0 resistor-2.sym
{
T 48150 44200 5 10 0 0 90 0 1
device=RESISTOR
T 48600 44250 5 10 0 1 90 4 1
footprint=C0603
T 47800 44000 5 10 0 0 90 0 1
symversion=0.1
T 48400 44250 5 10 1 1 90 4 1
refdes=R17
T 48150 44250 5 10 1 1 90 4 1
value=100kΩ
}
N 48400 43700 48400 43800 4
N 48700 43700 48400 43700 4
N 49300 43200 49300 42700 4
C 47800 42700 1 0 0 npn-sot23.sym
{
T 48500 43300 5 10 1 1 0 0 1
refdes=Q4
T 48500 43100 5 10 1 1 0 0 1
footprint=SC70_6
T 48500 42900 5 10 1 1 0 0 1
value=BC847S
T 48300 43200 5 10 1 1 0 0 1
slot=2
T 48700 43200 5 10 0 0 0 0 1
device=NPN_TRANSISTOR
T 47800 42700 5 10 0 1 0 0 1
numslots=3
T 47800 42700 5 10 0 1 0 0 1
slotdef=1:3,1,2
T 47800 42700 5 10 0 1 0 0 1
slotdef=2:6,2,1
T 47800 42700 5 10 0 1 0 0 1
slotdef=3:3,5,4
}
C 47900 44500 1 90 0 resistor-2.sym
{
T 47550 44900 5 10 0 0 90 0 1
device=RESISTOR
T 48000 44950 5 10 0 1 90 4 1
footprint=C0603
T 47200 44700 5 10 0 0 90 0 1
symversion=0.1
T 47800 44950 5 10 1 1 90 4 1
refdes=R16
T 47550 44950 5 10 1 1 90 4 1
value=1MΩ
}
N 47800 45400 47800 45700 4
N 47800 43200 47800 44500 4
C 49400 44200 1 90 0 resistor-2.sym
{
T 49050 44600 5 10 0 0 90 0 1
device=RESISTOR
T 49500 44650 5 10 0 1 90 4 1
footprint=C0603
T 48700 44400 5 10 0 0 90 0 1
symversion=0.1
T 49300 44650 5 10 1 1 90 4 1
refdes=R18
T 49050 44650 5 10 1 1 90 4 1
value=100kΩ
}
C 49100 45000 1 0 0 vcc-1.sym
N 49300 44200 49500 44200 4
C 41100 42200 1 180 0 io-1.sym
{
T 40200 42000 5 10 0 0 180 0 1
net=TxD:1
T 40900 41600 5 10 0 0 180 0 1
device=none
T 40600 42100 5 10 1 1 180 4 1
value=TxD
}
N 49300 45000 49300 45100 4
N 48400 44600 48400 44700 4
N 46100 44600 46100 44700 4
C 42000 42700 1 0 0 npn-sot23.sym
{
T 42900 43200 5 10 0 0 0 0 1
device=NPN_TRANSISTOR
T 42000 42700 5 10 0 1 0 0 1
numslots=3
T 42000 42700 5 10 0 1 0 0 1
slotdef=1:3,1,2
T 42000 42700 5 10 0 1 0 0 1
slotdef=2:6,2,1
T 42000 42700 5 10 0 1 0 0 1
slotdef=3:3,5,4
T 42700 43300 5 10 1 1 0 0 1
refdes=Q2
T 42700 43100 5 10 1 1 0 0 1
footprint=SC70_6
T 42700 42900 5 10 1 1 0 0 1
value=BC847S
T 42500 43200 5 10 1 1 0 0 1
slot=2
}
C 42500 42400 1 0 0 gnd-1.sym
C 43700 43200 1 0 0 npn-sot23.sym
{
T 44600 43700 5 10 0 0 0 0 1
device=NPN_TRANSISTOR
T 43700 43200 5 10 0 1 0 0 1
numslots=3
T 43700 43200 5 10 0 1 0 0 1
slotdef=1:3,1,2
T 43700 43200 5 10 0 1 0 0 1
slotdef=2:6,2,1
T 43700 43200 5 10 0 1 0 0 1
slotdef=3:3,5,4
T 44200 43700 5 10 1 1 0 0 1
slot=3
T 44400 43600 5 10 1 1 0 0 1
footprint=SC70_6
T 44400 43400 5 10 1 1 0 0 1
value=BC847S
T 44400 43800 5 10 1 1 0 0 1
refdes=Q2
}
C 44200 42400 1 0 0 gnd-1.sym
C 42700 44300 1 90 0 resistor-2.sym
{
T 42350 44700 5 10 0 0 90 0 1
device=RESISTOR
T 42800 44750 5 10 0 1 90 4 1
footprint=C0603
T 42000 44500 5 10 0 0 90 0 1
symversion=0.1
T 42600 44750 5 10 1 1 90 4 1
refdes=R12
T 42350 44750 5 10 1 1 90 4 1
value=100kΩ
}
N 42600 43700 42600 44300 4
N 44300 43200 44300 42700 4
N 42600 45100 42600 45200 4
C 42400 45100 1 0 0 vcc-1.sym
C 41200 43100 1 0 0 resistor-2.sym
{
T 41600 43450 5 10 0 0 0 0 1
device=RESISTOR
T 41650 43000 5 10 0 1 0 4 1
footprint=C0603
T 41400 43800 5 10 0 0 0 0 1
symversion=0.1
T 41650 43200 5 10 1 1 0 4 1
refdes=R10
T 41650 43450 5 10 1 1 0 4 1
value=10kΩ
}
C 54900 49700 1 0 0 io-1.sym
{
T 55800 49900 5 10 0 0 0 0 1
net=V12V:1
T 55100 50300 5 10 0 0 0 0 1
device=none
T 55400 49800 5 10 1 1 0 4 1
value=V12V
}
C 43900 45800 1 180 0 io-1.sym
{
T 43000 45600 5 10 0 0 180 0 1
net=V12V:1
T 43700 45200 5 10 0 0 180 0 1
device=none
T 43400 45700 5 10 1 1 180 4 1
value=V12V
}
C 41500 46300 1 90 1 capacitor-4.sym
{
T 40400 46100 5 10 0 0 270 2 1
device=POLARIZED_CAPACITOR
T 41500 45600 5 10 1 1 180 4 1
refdes=C13
T 40800 46100 5 10 0 0 270 2 1
symversion=0.2
T 40800 45900 5 10 0 1 90 4 1
footprint=P1206
T 41000 45900 5 10 0 1 90 4 1
value=10µF
}
C 39900 46300 1 270 0 capacitor-1.sym
{
T 40600 46100 5 10 0 0 270 0 1
device=CAPACITOR
T 40800 46100 5 10 0 0 270 0 1
symversion=0.2
T 40600 46100 5 10 0 1 270 0 1
footprint=C0603
T 40250 45750 5 10 0 1 90 6 1
value=100nF
T 40150 45750 5 10 1 1 180 6 1
refdes=C12
}
N 40100 45400 41300 45400 4
N 40700 46300 41300 46300 4
C 40500 46300 1 270 0 capacitor-1.sym
{
T 41200 46100 5 10 0 0 270 0 1
device=CAPACITOR
T 41400 46100 5 10 0 0 270 0 1
symversion=0.2
T 41200 46100 5 10 0 1 270 0 1
footprint=C0603
T 40850 45750 5 10 0 1 90 6 1
value=100nF
T 40750 45750 5 10 1 1 180 6 1
refdes=C11
}
C 54300 47400 1 270 0 vcc-1.sym
C 54400 46000 1 90 0 gnd-1.sym
C 54300 48700 1 270 1 zener-1.sym
{
T 54900 49100 5 10 0 0 90 2 1
device=ZENER_DIODE
T 54800 49100 5 10 1 1 180 6 1
refdes=D8
T 54800 49300 5 10 1 1 180 6 1
footprint=SOD123
T 54800 49500 5 10 1 1 180 6 1
value=12V
T 54300 48700 5 10 0 1 0 0 1
numslots=2
T 54300 48700 5 10 0 1 0 0 1
slotdef=1:1,2
T 54300 48700 5 10 0 1 0 0 1
slotdef=2:2,1
T 54550 48800 5 10 1 1 0 0 1
slot=1
}
N 44300 44700 44300 44200 4
C 41200 44100 1 0 0 resistor-2.sym
{
T 41600 44450 5 10 0 0 0 0 1
device=RESISTOR
T 41650 44000 5 10 0 1 0 4 1
footprint=C0603
T 41400 44800 5 10 0 0 0 0 1
symversion=0.1
T 41650 44200 5 10 1 1 0 4 1
refdes=R20
T 41650 44450 5 10 1 1 0 4 1
value=∞Ω
}
C 42900 43600 1 0 0 resistor-2.sym
{
T 43300 43950 5 10 0 0 0 0 1
device=RESISTOR
T 43350 43500 5 10 0 1 0 4 1
footprint=C0603
T 43100 44300 5 10 0 0 0 0 1
symversion=0.1
T 43350 43700 5 10 1 1 0 4 1
refdes=R21
T 43350 43950 5 10 1 1 0 4 1
value=0Ω
}
N 43800 43700 43700 43700 4
N 43800 44200 43800 43700 4
N 42600 43700 42900 43700 4
N 41100 44200 41100 43200 4
N 43800 44200 42100 44200 4
N 42100 43200 42000 43200 4
N 41200 43200 41100 43200 4
N 41200 44200 41100 44200 4
N 41100 42100 41500 42100 4
C 53000 43400 1 0 0 LT1761ES5-SD.sym
{
T 54500 45000 5 10 0 1 0 0 1
device=LT1761ES5-BYP
T 53900 44700 5 10 1 1 0 4 1
refdes=U30
T 54300 44300 5 7 1 1 0 8 1
footprint=SOT23_5
T 53900 45250 5 10 1 1 0 4 1
value=LT1761-SD / -BYP
}
C 53800 42800 1 0 0 gnd-1.sym
C 55300 44000 1 90 0 resistor-2.sym
{
T 54950 44400 5 10 0 0 90 0 1
device=RESISTOR
T 54800 44200 5 10 0 1 90 0 1
footprint=C0603
T 54600 44200 5 10 0 0 90 0 1
symversion=0.1
T 55300 44450 5 10 1 1 90 5 1
refdes=R31
T 55050 44450 5 10 1 1 90 3 1
value=270kΩ
}
N 55400 44900 54700 44900 4
N 54700 44000 55200 44000 4
{
T 54600 44050 5 5 1 1 0 0 1
netname=ADJ_CC
}
C 55300 43100 1 90 0 resistor-2.sym
{
T 54950 43500 5 10 0 0 90 0 1
device=RESISTOR
T 54800 43300 5 10 0 1 90 0 1
footprint=C0603
T 54600 43300 5 10 0 0 90 0 1
symversion=0.1
T 55300 43550 5 10 1 1 90 5 1
refdes=R32
T 55050 43550 5 10 1 1 90 3 1
value=120kΩ
}
C 55100 42800 1 0 0 gnd-1.sym
N 53900 43100 53900 43400 4
C 55400 45100 1 270 0 vcc-1.sym
N 52500 44900 53100 44900 4
C 53100 44000 1 90 0 resistor-2.sym
{
T 52750 44400 5 10 0 0 90 0 1
device=RESISTOR
T 52600 44200 5 10 0 1 90 0 1
footprint=C0603
T 52400 44200 5 10 0 0 90 0 1
symversion=0.1
T 53000 44450 5 10 1 1 90 4 1
refdes=R30
T 52850 44450 5 10 1 1 90 3 1
value=-SD: 10kΩ
}
N 53100 44000 52500 44000 4
{
T 53000 43950 5 5 1 1 0 5 1
netname=BYP
}
C 51600 43800 1 0 0 capacitor-1.sym
{
T 51800 44500 5 10 0 0 0 0 1
device=CAPACITOR
T 51800 44700 5 10 0 0 0 0 1
symversion=0.2
T 51800 44500 5 10 0 1 0 0 1
footprint=C0603
T 52100 44000 5 10 1 1 0 2 1
refdes=C30
T 51600 43600 5 10 1 1 0 0 1
value=-BYP 100nF
}
C 51600 43800 1 90 0 vcc-1.sym
T 52000 44400 9 7 1 0 0 5 1
(for -BYP option)
T 52500 44500 9 7 1 0 90 5 1
(for -SD option)
T 53900 45500 9 8 1 0 0 4 1
may use an —SD or a  —BYP part.
C 52500 45000 1 180 0 io-1.sym
{
T 51600 44800 5 10 0 0 180 0 1
net=DTR:1
T 52300 44400 5 10 0 0 180 0 1
device=none
T 52000 44900 5 10 1 1 180 4 1
value=DTR
}
C 43300 50300 1 90 1 capacitor-4.sym
{
T 42200 50100 5 10 0 0 270 2 1
device=POLARIZED_CAPACITOR
T 43300 49600 5 10 1 1 180 4 1
refdes=C31
T 42600 50100 5 10 0 0 270 2 1
symversion=0.2
T 42600 49900 5 10 0 1 90 4 1
footprint=P1206
T 42800 49900 5 10 0 1 90 4 1
value=10µF
}
C 43000 49300 1 0 0 gnd-1.sym
C 43100 50200 1 0 0 io-1.sym
{
T 44000 50400 5 10 0 0 0 0 1
net=DTR:1
T 43300 50800 5 10 0 0 0 0 1
device=none
T 43600 50300 5 10 1 1 0 4 1
value=DTR
}
C 41900 50200 1 0 0 resistor-2.sym
{
T 42300 50550 5 10 0 0 0 0 1
device=RESISTOR
T 42100 50700 5 10 0 1 0 0 1
footprint=C0603
T 42100 50900 5 10 0 0 0 0 1
symversion=0.1
T 42350 50200 5 10 1 1 0 5 1
refdes=R33
T 42350 50450 5 10 1 1 0 3 1
value=100Ω
}
N 41200 50000 41800 50000 4
{
T 41300 50050 5 5 1 1 0 0 1
netname=DTRD
}
N 42800 50300 43100 50300 4
N 43100 49600 43100 49400 4
C 41500 49800 1 0 0 header2.sym
{
T 41700 50800 5 10 0 0 0 0 1
device=CONNECTOR_2
T 41600 50550 5 10 1 1 0 0 1
refdes=J30
T 41900 49900 5 5 0 1 90 0 1
footprint=HE_100mil_2_2
}
N 41900 50300 41800 50300 4
T 47100 51300 9 8 1 0 0 0 2
Populate R1 when there is not sufficient
load to keep the oscillator running.
T 49000 46200 9 8 1 0 0 0 5
C7 will not reach the required +12V.
D5 will top that up.
How much does the DPDI really need?
Can we do without D5? 
With shottky diodes?
T 54100 50600 9 8 1 0 0 0 3
D2, D3, D6, and D7 precharge
the caps to ease the startup
loading.
T 51300 42400 9 8 1 0 0 0 2
U30 will tollerate negative input voltage 
and any voltage on the output without input voltage.
T 45700 41300 9 8 1 0 0 0 3
TxD and RxD need to be non-inverting.
RTS may be inverting ot non-inverting.
What is the default level on that pin?
T 41700 50900 9 8 1 0 0 0 3
DTR should be able to supply a few mA
to allow operation independent of the
taget power.
C 54000 46700 1 0 0 header2.sym
{
T 54200 47700 5 10 0 0 0 0 1
device=CONNECTOR_2
T 54100 47450 5 10 1 1 0 0 1
refdes=J2
T 54400 46800 5 5 0 1 90 0 1
footprint=HE_100mil_2_2
}
N 54400 46900 54100 46900 4
{
T 54500 46950 5 5 1 1 0 6 1
netname=VccT
}
C 54400 46800 1 0 0 resistor-2.sym
{
T 54800 47150 5 10 0 0 0 0 1
device=RESISTOR
T 54850 46700 5 10 0 1 0 4 1
footprint=C0603
T 54600 47500 5 10 0 0 0 0 1
symversion=0.1
T 54850 46900 5 10 1 1 0 4 1
refdes=R7
T 54850 47150 5 10 1 1 0 4 1
value=10kΩ
}
C 41100 43300 1 180 0 io-1.sym
{
T 40200 43100 5 10 0 0 180 0 1
net=RTS:1
T 40900 42700 5 10 0 0 180 0 1
device=none
T 40600 43200 5 10 1 1 180 4 1
value=RTS
}
N 55200 46900 55300 46900 4
N 42600 47600 42600 49400 4
N 41200 49400 42600 49400 4
{
T 41300 49450 5 5 1 1 0 0 1
netname=TxDD
}
C 39900 46300 1 0 0 generic-power.sym
{
T 40100 46550 5 10 0 1 0 3 1
net=VccT:1
T 40100 46550 5 7 1 1 0 3 1
description=VccT
}
